<?xml version="1.0" standalone="no"?>
<!DOCTYPE svg PUBLIC "-//W3C//DTD SVG 1.1//EN" "http://www.w3.org/Graphics/SVG/1.1/DTD/svg11.dtd" >
<svg xmlns="http://www.w3.org/2000/svg">
<metadata></metadata>
<defs>
<font id="montserratextra_bold" horiz-adv-x="1054" >
<font-face units-per-em="2048" ascent="1638" descent="-410" />
<missing-glyph horiz-adv-x="448" />
<glyph unicode="&#xfb01;" horiz-adv-x="1501" d="M49 807v266h152v86q0 177 123 279t321 100q131 0 223 -37l-14 -327q-61 40 -127 40q-54 2 -85.5 -25.5t-31.5 -78.5v-37h232v-266h-232v-807h-409v807h-152zM958 1432q0 94 59.5 153.5t153.5 59.5t153.5 -59.5t59.5 -153.5t-59.5 -153.5t-153.5 -59.5t-153.5 59.5 t-59.5 153.5zM963 0v1114h413v-1114h-413z" />
<glyph unicode="&#xfb02;" horiz-adv-x="1527" d="M49 809v264h152v92q0 171 122 273.5t324 101.5q121 0 221 -35l-12 -327q-56 41 -121 41q-57 2 -91 -30t-34 -87v-29h234l-2 -264h-232v-809h-409v809h-152zM979 0v1520h414v-1520h-414z" />
<glyph horiz-adv-x="0" />
<glyph horiz-adv-x="682" />
<glyph unicode=" "  horiz-adv-x="448" />
<glyph unicode="&#x09;" horiz-adv-x="448" />
<glyph unicode="&#xa0;" horiz-adv-x="448" />
<glyph unicode="!" horiz-adv-x="565" d="M88 178q0 85 54 138t139 53q86 0 140 -53t54 -138q0 -86 -54 -140t-140 -54q-85 0 -139 54t-54 140zM92 1059v373h393v-373l-71 -547h-248z" />
<glyph unicode="&#x22;" horiz-adv-x="978" d="M123 842v594h309v-594h-309zM547 842v594h309v-594h-309z" />
<glyph unicode="#" horiz-adv-x="1517" d="M18 299l35 283h271l32 256h-268l31 282h272l39 316h295l-39 -316h246l39 316h297l-39 -316h270l-33 -282h-272l-33 -256h271l-35 -283h-271l-36 -299h-297l36 299h-245l-37 -299h-295l37 299h-271zM618 582h246l33 256h-246z" />
<glyph unicode="$" horiz-adv-x="1341" d="M25 215l159 324q109 -92 266 -156t269 -64q69 0 108 24.5t39 72.5q0 38 -32 66.5t-85 45t-120 35.5t-137.5 37t-137.5 51t-120 75.5t-85 113t-32 161.5q0 164 104 277.5t289 155.5v323h309v-309q136 -12 265.5 -54.5t226.5 -105.5l-158 -327q-114 65 -251.5 112 t-225.5 47q-56 0 -87.5 -19.5t-31.5 -58.5q0 -42 41.5 -72t107.5 -50t146 -40.5t160 -53t146 -78.5t107.5 -125.5t41.5 -184.5q0 -99 -37.5 -179.5t-104 -134t-154 -86.5t-192.5 -44v-322h-309v334q-283 52 -485 209z" />
<glyph unicode="%" horiz-adv-x="2146" d="M57 1008q0 199 111.5 316.5t300.5 117.5q188 0 299 -117.5t111 -316.5q0 -201 -111.5 -321t-298.5 -120q-189 0 -300.5 120t-111.5 321zM317 1008q0 -101 41 -160.5t111 -59.5q69 0 109 59.5t40 160.5q0 100 -40 158.5t-109 58.5q-70 0 -111 -58.5t-41 -158.5zM373 0 l1009 1436h385l-1007 -1436h-387zM1270 430q0 200 111 318t300 118q188 0 299 -118.5t111 -317.5q0 -201 -111 -319.5t-299 -118.5q-189 0 -300 118.5t-111 319.5zM1530 430q0 -101 40.5 -160t110.5 -59q69 0 109.5 59t40.5 160q0 100 -40.5 158.5t-109.5 58.5 q-70 0 -110.5 -58.5t-40.5 -158.5z" />
<glyph unicode="&#x26;" horiz-adv-x="1427" d="M111 406q0 68 21 125.5t61.5 103t85 79.5t104.5 68q-113 164 -113 314q0 164 116 261t312 97q190 0 312.5 -94t122.5 -240q0 -72 -26.5 -132.5t-78 -108.5t-102 -81t-123.5 -71q102 -110 184 -192q55 98 84 213l260 -187q-51 -136 -123 -242l205 -190l-209 -201l-192 185 q-182 -131 -396 -131q-220 0 -362.5 119t-142.5 305zM446 436q0 -75 53 -121.5t134 -46.5q86 0 168 51q-153 153 -258 267q-97 -67 -97 -150zM592 1098q0 -83 59 -176q77 44 117.5 89.5t40.5 104.5q0 49 -29.5 78t-77.5 29q-52 0 -81 -34t-29 -91z" />
<glyph unicode="'" horiz-adv-x="555" d="M123 842v594h309v-594h-309z" />
<glyph unicode="(" horiz-adv-x="735" d="M109 633q0 247 69.5 475t198.5 412h371q-117 -190 -183.5 -418.5t-66.5 -468.5t66.5 -468.5t183.5 -418.5h-371q-129 184 -198.5 412t-69.5 475z" />
<glyph unicode=")" horiz-adv-x="747" d="M33 -254q117 190 183.5 418.5t66.5 468.5t-66.5 468.5t-183.5 418.5h370q130 -184 199.5 -412.5t69.5 -474.5t-69.5 -474.5t-199.5 -412.5h-370z" />
<glyph unicode="*" horiz-adv-x="806" d="M43 1024l166 92l-166 88l102 180l160 -100l-4 189h205l-4 -189l160 96l102 -176l-168 -88l168 -92l-102 -178l-162 98l6 -186h-205l6 188l-162 -96z" />
<glyph unicode="+" d="M63 543v258h336v336h258v-336h334v-258h-334v-336h-258v336h-336z" />
<glyph unicode="," horiz-adv-x="520" d="M45 -213l100 242q-75 51 -75 147q0 85 54.5 139t139.5 54q79 0 135 -51.5t56 -139.5q0 -76 -52 -151l-165 -240h-193z" />
<glyph unicode="-" horiz-adv-x="772" d="M106 502v258h560v-258h-560z" />
<glyph unicode="." horiz-adv-x="522" d="M68 178q0 85 53.5 138t138.5 53q86 0 140.5 -53t54.5 -138q0 -86 -54.5 -140t-140.5 -54q-85 0 -138.5 54t-53.5 140z" />
<glyph unicode="/" horiz-adv-x="745" d="M-90 -219l670 1874h346l-670 -1874h-346z" />
<glyph unicode="0" horiz-adv-x="1449" d="M78 719q0 352 167 540.5t482 188.5q311 0 479 -189t168 -540q0 -353 -168 -542t-479 -189q-315 0 -482 188.5t-167 542.5zM514 719q0 -230 48.5 -326t164.5 -96q113 0 161 96.5t48 325.5t-48 324.5t-161 95.5q-116 0 -164.5 -95t-48.5 -325z" />
<glyph unicode="1" horiz-adv-x="870" d="M8 1096v340h684v-1436h-428v1096h-256z" />
<glyph unicode="2" horiz-adv-x="1239" d="M33 1233q315 221 614 221q219 0 361.5 -106.5t142.5 -276.5q0 -114 -71.5 -231t-202.5 -252l-250 -256h555v-332h-1100v270l504 529q121 128 121 211q0 47 -32.5 72.5t-92.5 25.5q-84 0 -185 -48t-204 -134z" />
<glyph unicode="3" horiz-adv-x="1161" d="M-10 164l170 323q164 -188 356 -188q88 0 134 39t44 113q0 149 -180 149h-246v225l293 291h-498v316h984v-240l-330 -330l63 -14q150 -29 241 -132t91 -261q0 -211 -153 -342t-408 -131q-155 0 -306 49.5t-255 132.5z" />
<glyph unicode="4" horiz-adv-x="1331" d="M53 293v282l434 861h408l-408 -830h244v289h395v-289h189v-313h-189v-293h-395v293h-678z" />
<glyph unicode="5" horiz-adv-x="1236" d="M16 168l168 321q159 -188 357 -188q89 0 136.5 40.5t45.5 115.5q0 143 -182 143q-228 0 -400 -4v840h975v-332h-584v-186h93q253 0 405 -119t152 -314q0 -229 -161 -366t-431 -137q-146 0 -302 50.5t-272 135.5z" />
<glyph unicode="6" horiz-adv-x="1312" d="M78 700q0 343 186 548.5t498 205.5q127 0 257.5 -33.5t223.5 -89.5l-162 -299q-123 94 -293 94q-152 0 -228.5 -77.5t-74.5 -225.5q107 129 316 129q211 0 338 -129.5t127 -339.5q0 -229 -151 -365t-400 -136q-297 0 -467 193.5t-170 524.5zM524 481q0 -73 44.5 -116 t129.5 -43q172 0 172 163q0 75 -43 115.5t-125 40.5q-85 0 -131.5 -43t-46.5 -117z" />
<glyph unicode="7" horiz-adv-x="1243" d="M63 903v533h1156v-289l-510 -1147h-451l492 1104h-312v-201h-375z" />
<glyph unicode="8" horiz-adv-x="1331" d="M59 399q0 118 71.5 218t191.5 151q-85 54 -136 135.5t-51 167.5q0 174 144.5 278.5t384.5 104.5q243 0 387.5 -107.5t144.5 -287.5q0 -86 -45.5 -164.5t-120.5 -126.5q111 -51 176.5 -148.5t65.5 -213.5q0 -194 -164.5 -309t-441.5 -115t-442 113.5t-165 303.5zM461 442 q0 -75 52.5 -114t152.5 -39t152 39t52 114q0 77 -52 117.5t-152 40.5t-152.5 -40.5t-52.5 -117.5zM494 1036q0 -65 44 -99t128 -34t128 34t44 99q0 138 -172 138t-172 -138z" />
<glyph unicode="9" horiz-adv-x="1312" d="M49 952q0 229 151 365.5t400 136.5q296 0 466.5 -194t170.5 -525q0 -343 -186 -548t-498 -205q-127 0 -258 33t-223 89l161 299q123 -94 293 -94q152 0 228.5 77.5t74.5 225.5q-107 -129 -315 -129q-211 0 -338 129.5t-127 339.5zM444 950q0 -75 43 -115t125 -40 q85 0 132 42.5t47 116.5q0 73 -45 116.5t-130 43.5q-84 0 -128 -41.5t-44 -122.5z" />
<glyph unicode=":" horiz-adv-x="520" d="M68 178q0 85 53.5 138t138.5 53q86 0 140.5 -53t54.5 -138q0 -86 -54.5 -140t-140.5 -54q-85 0 -138.5 54t-53.5 140zM68 786q0 85 53.5 138t138.5 53q86 0 140.5 -53t54.5 -138q0 -86 -54.5 -140t-140.5 -54q-85 0 -138.5 54t-53.5 140z" />
<glyph unicode=";" horiz-adv-x="522" d="M45 -213l100 242q-75 51 -75 147q0 85 54.5 139t139.5 54q79 0 135 -51.5t56 -139.5q0 -76 -52 -151l-165 -240h-193zM68 786q0 85 53.5 138t138.5 53q86 0 140.5 -53t54.5 -138q0 -86 -54.5 -140t-140.5 -54q-85 0 -138.5 54t-53.5 140z" />
<glyph unicode="&#x3c;" d="M63 498v329l928 379v-288l-661 -254l661 -256v-289z" />
<glyph unicode="=" d="M63 319v259h928v-259h-928zM63 766v258h928v-258h-928z" />
<glyph unicode="&#x3e;" d="M63 137v289l662 254l-662 256v289l928 -379v-330z" />
<glyph unicode="?" horiz-adv-x="995" d="M4 950q2 235 131 366.5t359 131.5q215 0 335.5 -95.5t120.5 -269.5q0 -71 -23 -132.5t-57 -102t-74.5 -83.5t-74.5 -78t-57 -83.5t-23 -101.5h-309q0 86 24.5 154.5t59 111t69.5 79t59.5 79t24.5 90.5q0 106 -114 106q-133 0 -133 -172h-318zM289 178q0 85 52.5 138 t137.5 53q86 0 140.5 -53t54.5 -138q0 -86 -54.5 -140t-140.5 -54q-85 0 -137.5 54t-52.5 140z" />
<glyph unicode="@" horiz-adv-x="1818" d="M39 549q0 183 69.5 347t187 281t281 186t345.5 69q181 0 340 -66t273 -180.5t179.5 -276t65.5 -346.5q0 -225 -111 -362.5t-283 -137.5q-196 0 -241 154l-4 21q-105 -154 -287 -154q-83 0 -161 34t-139 94t-97.5 149.5t-36.5 193.5q0 97 29 183.5t80.5 151.5t128 103.5 t167.5 38.5q43 0 84.5 -11.5t70.5 -27.5t52 -34t34 -30t13 -16v95h264v-676q0 -94 70 -94q61 0 108.5 91.5t47.5 227.5q0 114 -27.5 217t-82 187.5t-131.5 146t-181 95.5t-225 34q-182 0 -337 -92.5t-245 -251t-90 -344.5q0 -138 50 -259.5t135.5 -208t205.5 -136t256 -49.5 q94 0 196.5 32t184.5 95l100 -170q-88 -69 -223 -111.5t-258 -42.5q-180 0 -339 65t-273 177t-180 270t-66 338zM711 565q0 -101 46.5 -172t125.5 -71q83 0 130.5 69t47.5 172q0 97 -48.5 161t-133.5 64q-75 0 -121.5 -65t-46.5 -158z" />
<glyph unicode="A" horiz-adv-x="1609" d="M-16 0l612 1436h438l592 -1436h-455l-84 229h-579l-86 -229h-438zM627 541h348l-172 469z" />
<glyph unicode="B" horiz-adv-x="1474" d="M121 0v1436h704q252 0 401.5 -98.5t149.5 -264.5q0 -109 -65.5 -193t-177.5 -116q132 -28 210 -127t78 -236q0 -184 -153.5 -292.5t-411.5 -108.5h-735zM545 317h258q81 0 128.5 37.5t47.5 100.5q0 59 -47 93t-129 34h-258v-265zM545 872h258q63 0 100 34t37 91 q0 55 -37 87t-100 32h-258v-244z" />
<glyph unicode="C" horiz-adv-x="1413" d="M39 721q0 206 100 372.5t276.5 260.5t395.5 94q163 0 324.5 -68.5t269.5 -185.5l-246 -291q-68 87 -160.5 139t-181.5 52q-146 0 -244 -105.5t-98 -263.5t98 -264.5t244 -106.5q83 0 175.5 45.5t166.5 120.5l246 -262q-117 -126 -281.5 -201t-326.5 -75q-161 0 -302 56 t-241 154t-157.5 235t-57.5 294z" />
<glyph unicode="D" horiz-adv-x="1560" d="M121 0v1436h629q349 0 560.5 -196.5t211.5 -520.5q0 -160 -57 -294t-159 -227.5t-249 -145.5t-322 -52h-614zM547 334h215q146 0 235.5 104.5t89.5 276.5q0 173 -96 279t-250 106h-194v-766z" />
<glyph unicode="E" horiz-adv-x="1398" d="M121 0v1436h1173v-328h-747v-225h678v-328h-678v-227h768v-328h-1194z" />
<glyph unicode="F" horiz-adv-x="1267" d="M121 0v1436h1114v-328h-688v-287h639v-327h-639v-494h-426z" />
<glyph unicode="G" horiz-adv-x="1515" d="M39 717q0 207 103 374.5t286.5 262t411.5 94.5q164 0 328 -58.5t278 -158.5l-242 -293q-74 71 -173.5 113.5t-192.5 42.5q-155 0 -259 -108t-104 -269q0 -164 105 -271.5t262 -107.5q94 0 217 55v350h366v-577q-118 -80 -290 -132t-324 -52q-164 0 -307.5 56t-245.5 153 t-160.5 233.5t-58.5 292.5z" />
<glyph unicode="H" horiz-adv-x="1603" d="M121 0v1436h426v-572h510v572h426v-1436h-426v535h-510v-535h-426z" />
<glyph unicode="I" horiz-adv-x="667" d="M121 0v1436h426v-1436h-426z" />
<glyph unicode="J" horiz-adv-x="1134" d="M-14 221l194 281q78 -79 158.5 -120.5t142.5 -41.5q60 0 93.5 37t33.5 108v611h-487v340h917v-961q0 -233 -140 -363t-382 -130q-315 0 -530 239z" />
<glyph unicode="K" horiz-adv-x="1558" d="M121 0v1436h426v-553l481 553h492l-521 -584l553 -852h-510l-333 524l-162 -180v-344h-426z" />
<glyph unicode="L" horiz-adv-x="1175" d="M121 0v1436h426v-1080h602v-356h-1028z" />
<glyph unicode="M" horiz-adv-x="1847" d="M121 0v1436h457l346 -795l346 795h456v-1436h-372l-2 850l-289 -709h-279l-288 709v-850h-375z" />
<glyph unicode="N" horiz-adv-x="1603" d="M121 0v1436h364l609 -803v803h389v-1436h-363l-608 799v-799h-391z" />
<glyph unicode="O" horiz-adv-x="1642" d="M39 719q0 208 101 375t279.5 260.5t401.5 93.5q167 0 312.5 -55t248.5 -151.5t162.5 -232t59.5 -290.5q0 -156 -59.5 -293t-162.5 -234.5t-248.5 -153.5t-312.5 -56q-222 0 -401 95t-280 264t-101 378zM475 717q0 -160 104.5 -269.5t247.5 -109.5q142 0 241 109t99 270 t-98.5 268t-241.5 107q-145 0 -248.5 -107.5t-103.5 -267.5z" />
<glyph unicode="P" horiz-adv-x="1398" d="M121 0v1436h651q279 0 431.5 -133t152.5 -377q0 -257 -153 -398t-431 -141h-225v-387h-426zM547 715h205q96 0 148 51t52 147q0 94 -52.5 144.5t-147.5 50.5h-205v-393z" />
<glyph unicode="Q" horiz-adv-x="1644" d="M39 719q0 208 101 375t279.5 260.5t401.5 93.5q167 0 312.5 -55t248.5 -151.5t162.5 -232t59.5 -290.5q0 -230 -124.5 -411t-334.5 -267q64 -80 143 -80q46 0 110 27.5t128 74.5l143 -256q-83 -72 -200.5 -115.5t-227.5 -43.5q-155 0 -278 90t-187 246q-212 10 -380 107 t-262.5 261.5t-94.5 366.5zM475 717q0 -160 104.5 -269.5t247.5 -109.5q142 0 241 109t99 270t-98.5 268t-241.5 107q-145 0 -248.5 -107.5t-103.5 -267.5z" />
<glyph unicode="R" horiz-adv-x="1484" d="M121 0v1436h670q289 0 447.5 -133t158.5 -377q0 -320 -242 -457l291 -469h-483l-191 387h-225v-387h-426zM547 715h244q96 0 148 51t52 147q0 94 -52.5 144.5t-147.5 50.5h-244v-393z" />
<glyph unicode="S" horiz-adv-x="1341" d="M25 215l159 324q109 -92 266 -156t269 -64q69 0 108 24.5t39 72.5q0 38 -32 66.5t-85 45t-120 35.5t-137.5 37t-137.5 51t-120 75.5t-85 113t-32 161.5q0 206 162.5 329.5t431.5 123.5q162 0 321.5 -45t278.5 -121l-158 -327q-114 65 -251.5 112t-225.5 47 q-56 0 -87.5 -19.5t-31.5 -58.5q0 -42 41.5 -72t107.5 -50t146 -40.5t160 -53t146 -78.5t107.5 -125.5t41.5 -184.5q0 -111 -47 -198.5t-128.5 -141.5t-187.5 -82t-229 -28q-184 0 -370 61t-320 166z" />
<glyph unicode="T" horiz-adv-x="1286" d="M12 1096v340h1262v-340h-418v-1096h-428v1096h-416z" />
<glyph unicode="U" horiz-adv-x="1546" d="M98 606v830h426v-830q0 -122 73 -195t183 -73q108 0 175 72t67 196v830h426v-830q0 -286 -181.5 -455t-488.5 -169q-310 0 -495 169.5t-185 454.5z" />
<glyph unicode="V" horiz-adv-x="1531" d="M-6 1436h455l327 -994l328 994h436l-555 -1436h-442z" />
<glyph unicode="W" horiz-adv-x="2258" d="M-6 1436h455l245 -994l240 992l416 2l245 -994l240 994h436l-471 -1436h-438l-229 915l-234 -915h-438z" />
<glyph unicode="X" horiz-adv-x="1548" d="M-2 0l508 731l-475 705h495l238 -375l240 375h501l-469 -686l512 -750h-512l-272 410l-268 -410h-498z" />
<glyph unicode="Y" horiz-adv-x="1437" d="M-16 1436h426l313 -586l305 586h424l-516 -981v-455h-426v446z" />
<glyph unicode="Z" horiz-adv-x="1390" d="M49 0v268l713 836h-688v332h1255v-271l-713 -833h727v-332h-1294z" />
<glyph unicode="[" horiz-adv-x="757" d="M121 -254v1774h610v-306h-244v-1163h244v-305h-610z" />
<glyph unicode="\" horiz-adv-x="837" d="M-96 1655h346l670 -1874h-349z" />
<glyph unicode="]" horiz-adv-x="845" d="M115 51h241v1163h-241v306h610v-1774h-610v305z" />
<glyph unicode="^" horiz-adv-x="1214" d="M63 289l379 784h330l379 -784h-289l-254 559l-256 -559h-289z" />
<glyph unicode="_" horiz-adv-x="1212" d="M0 -195h1212v-223h-1212v223z" />
<glyph unicode="`" horiz-adv-x="716" d="M68 1468l358 119l219 -368h-303z" />
<glyph unicode="a" horiz-adv-x="1243" d="M41 332q0 162 110 248.5t320 89.5h272v4q0 70 -49 108.5t-143 38.5q-150 0 -336 -80l-102 275q280 114 536 114q235 0 367.5 -107t132.5 -300v-723h-406v123q-107 -141 -325 -141q-176 0 -276.5 95.5t-100.5 254.5zM430 362q0 -53 32.5 -81.5t92.5 -28.5q63 0 114 31 t74 84v100h-188q-125 0 -125 -105z" />
<glyph unicode="b" horiz-adv-x="1409" d="M135 0v1520h414v-535q115 143 305 143q233 0 374.5 -158t141.5 -419q0 -257 -138 -411t-368 -154q-197 0 -315 143v-129h-414zM549 561q0 -110 56 -179t145 -69q92 0 147 68.5t55 179.5t-55 179.5t-147 68.5q-89 0 -145 -69t-56 -179z" />
<glyph unicode="c" horiz-adv-x="1150" d="M39 553q0 260 160 417.5t424 157.5q175 0 309 -76t205 -214l-318 -156q-62 111 -178 111q-83 0 -133.5 -66t-50.5 -172q0 -109 50.5 -175.5t133.5 -66.5q125 0 176 123l322 -162q-64 -138 -200 -213t-321 -75q-262 0 -420.5 155t-158.5 412z" />
<glyph unicode="d" horiz-adv-x="1409" d="M39 563q0 256 138.5 410.5t367.5 154.5q197 0 315 -143v535h414v-1520h-414v127q-116 -141 -305 -141q-234 0 -375 157.5t-141 419.5zM457 553q0 -113 55 -181.5t147 -68.5q91 0 146 68.5t55 181.5q0 111 -55.5 179.5t-145.5 68.5q-92 0 -147 -68.5t-55 -179.5z" />
<glyph unicode="e" horiz-adv-x="1247" d="M39 553q0 260 161.5 417.5t426.5 157.5q291 0 445 -180q137 -161 136 -424q0 -33 -2 -67h-749q25 -80 81.5 -123t135.5 -43q131 0 246 106l215 -211q-181 -200 -496 -200q-278 0 -439 154.5t-161 412.5zM449 659h350q1 83 -46 136t-122 53q-71 0 -119 -51.5t-63 -137.5z " />
<glyph unicode="f" horiz-adv-x="837" d="M49 793v264h152v102q0 176 123 279q120 100 313 100h8q91 0 183.5 -21t158.5 -59l-141 -284q-59 43 -119 43q-53 0 -85 -28.5t-32 -78.5v-53h232v-264h-232v-793h-409v793h-152z" />
<glyph unicode="g" horiz-adv-x="1333" d="M39 602q0 236 128 381t331 145q194 0 307 -135v121h409v-1018q0 -233 -168.5 -372.5t-443.5 -139.5q-147 0 -282 41t-232 105l137 278q72 -49 163 -75.5t179 -26.5q112 0 175 48t63 130v113q-112 -134 -299 -134q-205 0 -336 148.5t-131 390.5zM426 590 q0 -103 51.5 -166.5t136.5 -63.5q86 0 138.5 63.5t52.5 166.5q0 106 -52.5 169.5t-138.5 63.5q-85 0 -136.5 -64.5t-51.5 -168.5z" />
<glyph unicode="h" horiz-adv-x="1398" d="M135 0v1520h414v-578q119 188 354 188q181 0 291.5 -115t110.5 -308v-707h-414v588q0 83 -43 131.5t-117 48.5q-84 -1 -133 -61t-49 -156v-551h-414z" />
<glyph unicode="i" horiz-adv-x="663" d="M121 1432q0 94 59.5 153.5t153.5 59.5t153.5 -59.5t59.5 -153.5t-59.5 -153.5t-153.5 -59.5t-153.5 59.5t-59.5 153.5zM125 0v1114h414v-1114h-414z" />
<glyph unicode="j" horiz-adv-x="686" d="M-180 -344l96 287q62 -35 119 -35q98 0 98 106v1100h414v-1149q0 -177 -117 -279q-116 -100 -302 -100h-7q-173 0 -301 70zM111 1432q0 94 64 153.5t165 59.5t165 -59.5t64 -153.5t-64 -153.5t-165 -59.5t-165 59.5t-64 153.5z" />
<glyph unicode="k" horiz-adv-x="1327" d="M135 0v1520h414v-740l307 334h467l-408 -430l410 -684h-489l-203 387l-84 -88v-299h-414z" />
<glyph unicode="l" horiz-adv-x="686" d="M135 0v1520h414v-1520h-414z" />
<glyph unicode="m" horiz-adv-x="2117" d="M125 0v1114h414v-170q117 186 346 186q130 0 226 -63.5t140 -177.5q54 117 150.5 179t226.5 62q178 0 286.5 -115t108.5 -308v-707h-413v588q0 83 -42 131.5t-112 48.5q-79 -1 -126.5 -61t-47.5 -156v-551h-414v588q0 83 -42 131.5t-111 48.5q-81 -1 -128.5 -61 t-47.5 -156v-551h-414z" />
<glyph unicode="n" horiz-adv-x="1388" d="M125 0v1114h414v-172q119 188 354 188q180 0 290.5 -115.5t110.5 -307.5v-707h-413v588q0 83 -44 131.5t-116 48.5q-84 -1 -133 -61t-49 -156v-551h-414z" />
<glyph unicode="o" horiz-adv-x="1316" d="M39 557q0 259 169.5 415t450.5 156t450 -156t169 -415q0 -258 -169 -414.5t-450 -156.5t-450.5 156.5t-169.5 414.5zM457 553q0 -113 55 -180.5t147 -67.5q91 0 146 68t55 180q0 111 -55.5 179.5t-145.5 68.5q-92 0 -147 -68.5t-55 -179.5z" />
<glyph unicode="p" horiz-adv-x="1409" d="M135 -397v1511h414v-129q115 143 305 143q233 0 374.5 -158t141.5 -419q0 -257 -138 -411t-368 -154q-197 0 -315 143v-526h-414zM549 561q0 -110 56 -179t145 -69q92 0 147 68.5t55 179.5t-55 179.5t-147 68.5q-89 0 -145 -69t-56 -179z" />
<glyph unicode="q" horiz-adv-x="1409" d="M39 563q0 256 138.5 410.5t367.5 154.5q197 0 315 -143v129h414v-1511h-414v524q-116 -141 -305 -141q-234 0 -375 157.5t-141 419.5zM457 553q0 -113 55 -181.5t147 -68.5q91 0 146 68.5t55 181.5q0 111 -55.5 179.5t-145.5 68.5q-92 0 -147 -68.5t-55 -179.5z" />
<glyph unicode="r" horiz-adv-x="909" d="M125 0v1114h414v-176q122 192 350 192v-372q-39 5 -74 5q-109 0 -181 -47q-96 -62 -95 -184v-532h-414z" />
<glyph unicode="s" horiz-adv-x="1095" d="M29 139l127 260q212 -137 403 -137q92 0 92 51q0 25 -31.5 44t-81.5 33.5t-111 31t-121.5 43t-110.5 62t-81.5 95.5t-31.5 138q0 173 130.5 273t344.5 100q255 0 490 -136l-138 -260q-228 117 -364 117q-84 0 -84 -53q0 -25 32 -44t83.5 -34t113 -31.5t123.5 -43.5 t113.5 -63.5t83.5 -96.5t32 -138q0 -170 -134 -269t-355 -99q-305 0 -524 157z" />
<glyph unicode="t" horiz-adv-x="919" d="M27 793v264h153v309h412v-309h274v-264h-274v-381q0 -53 25 -80t69 -27q37 0 127 33l74 -285q-123 -71 -309 -71h-7q-175 0 -282 96q-109 98 -109 270v445h-153z" />
<glyph unicode="u" horiz-adv-x="1368" d="M94 408v706h414v-590q0 -81 40.5 -129.5t108.5 -48.5q79 1 125.5 61t46.5 156v551h414v-1114h-414v166q-118 -184 -342 -184q-176 0 -284.5 116t-108.5 310z" />
<glyph unicode="v" horiz-adv-x="1216" d="M-16 1114h426l204 -737l207 737h414l-416 -1114h-422z" />
<glyph unicode="w" horiz-adv-x="1964" d="M-16 1114h419l201 -711l193 711h389l198 -711l197 711h401l-405 -1114h-408l-184 639l-188 -639h-408z" />
<glyph unicode="x" horiz-adv-x="1296" d="M-2 0l373 569l-351 545h476l153 -289l172 289h451l-348 -543l372 -571h-475l-172 315l-196 -315h-455z" />
<glyph unicode="y" horiz-adv-x="1239" d="M-33 -293l172 277q73 -64 150 -64q84 0 121 72l20 39l-461 1083h424l244 -682l207 682h411l-467 -1208q-129 -322 -462 -322q-196 0 -359 123z" />
<glyph unicode="z" horiz-adv-x="1148" d="M59 0v244l500 559h-479v311h999v-246l-499 -559h520v-309h-1041z" />
<glyph unicode="{" horiz-adv-x="757" d="M39 475v313h86q37 0 52.5 18t15.5 62v355q0 168 83 234.5t295 66.5h162v-305q-102 0 -137 -27t-35 -98v-199q0 -119 -42 -179t-144 -83q102 -25 144 -84.5t42 -177.5v-199q0 -71 35 -98t137 -27v-305h-162q-212 0 -295 66t-83 235v354q0 44 -15.5 61t-52.5 17h-86z" />
<glyph unicode="|" horiz-adv-x="643" d="M168 -217v1853h307v-1853h-307z" />
<glyph unicode="}" horiz-adv-x="788" d="M72 47q102 0 137 27t35 98v199q0 118 42 177.5t144 84.5q-102 23 -144 83t-42 179v199q0 71 -35 98t-137 27v305h161q212 0 295.5 -66.5t83.5 -234.5v-355q0 -44 15.5 -62t52.5 -18h86v-313h-86q-37 0 -52.5 -17t-15.5 -61v-354q0 -169 -83.5 -235t-295.5 -66h-161v305z " />
<glyph unicode="~" d="M104 481q0 195 61.5 289t188.5 94q46 0 90 -15t71.5 -33t55.5 -33t47 -15q60 0 60 88h274q0 -195 -60.5 -289t-186.5 -94q-48 0 -92.5 15t-72 33t-55.5 33t-47 15q-57 0 -57 -88h-277z" />
<glyph unicode="&#xa1;" horiz-adv-x="565" d="M92 51l72 549h248l73 -549v-370h-393v370zM102 934q0 86 54.5 140t140.5 54q85 0 138.5 -54t53.5 -140q0 -85 -53.5 -139t-138.5 -54q-86 0 -140.5 54t-54.5 139z" />
<glyph unicode="&#xa2;" horiz-adv-x="1146" d="M39 553q0 223 119.5 373t324.5 190v334h312v-342q237 -64 342 -270l-318 -156q-62 111 -178 111q-83 0 -133.5 -66t-50.5 -172q0 -109 50.5 -175.5t133.5 -66.5q125 0 176 123l322 -162q-95 -207 -344 -268v-334h-312v326q-205 38 -324.5 186.5t-119.5 368.5z" />
<glyph unicode="&#xa3;" horiz-adv-x="1150" d="M49 0v319h148v238h-148v279h148v122q0 236 134.5 366t379.5 130q128 0 245.5 -44.5t204.5 -127.5l-157 -313q-129 129 -246 129q-133 0 -133 -148v-114h333v-279h-333v-238h505v-319h-1081z" />
<glyph unicode="&#xa5;" horiz-adv-x="1400" d="M-16 1436h426l313 -586l305 586h426l-381 -721h201v-152h-281l-57 -110h338v-154h-338v-299h-426v299h-375v154h371l-57 110h-314v152h232z" />
<glyph unicode="&#xa7;" horiz-adv-x="1163" d="M29 -23l112 256q222 -139 404 -139q52 0 79 14.5t27 38.5q0 25 -33 46t-85.5 38t-116.5 36t-128 47t-116.5 64.5t-85.5 95t-33 132.5q0 94 52 165t149 114q-68 41 -93.5 85t-25.5 107q0 153 126.5 248.5t340.5 95.5q244 0 492 -133l-123 -256q-237 117 -365 117 q-46 0 -71 -14.5t-25 -38.5q0 -27 33.5 -48.5t87 -39t118.5 -37t130 -48t118.5 -65t87 -95t33.5 -132.5q0 -91 -50.5 -163.5t-141.5 -115.5q60 -41 85 -81.5t25 -110.5q0 -153 -130.5 -247.5t-352.5 -94.5q-139 0 -275.5 40.5t-248.5 118.5zM426 633q0 -38 52 -61t130 -23 q63 0 95 16t32 43q0 37 -55.5 61.5t-132.5 24.5q-121 0 -121 -61z" />
<glyph unicode="&#xa8;" horiz-adv-x="733" d="M-23 1425q0 76 49 125t126 49q78 0 127 -48.5t49 -125.5q0 -78 -49 -127t-127 -49q-77 0 -126 49t-49 127zM389 1425q0 76 49.5 125t126.5 49t125.5 -48.5t48.5 -125.5q0 -78 -48.5 -127t-125.5 -49t-126.5 49t-49.5 127z" />
<glyph unicode="&#xa9;" horiz-adv-x="1464" d="M39 713q0 140 54 268.5t146 223t221 150.5t273 56q143 0 271.5 -55t220.5 -148.5t146 -221.5t54 -269q0 -140 -54.5 -268.5t-146.5 -223t-221.5 -151t-273.5 -56.5q-143 0 -271.5 55.5t-220 149.5t-145 222t-53.5 268zM225 713q0 -138 66 -254.5t182 -185t256 -68.5 q141 0 259 69.5t184.5 187t66.5 255.5t-66.5 254.5t-183 185t-256.5 68.5q-141 0 -258 -69.5t-183.5 -187t-66.5 -255.5zM393 715q0 145 100.5 239.5t254.5 94.5q74 0 147.5 -31.5t122.5 -85.5l-113 -133q-31 40 -72.5 64t-82.5 24q-68 0 -113 -48t-45 -120q0 -73 45 -121.5 t113 -48.5q81 0 155 74l113 -119q-54 -59 -129 -93t-150 -34q-151 0 -248.5 96t-97.5 242z" />
<glyph unicode="&#xaa;" horiz-adv-x="813" d="M33 1137q0 98 69 149t203 53h168q-3 78 -117 78q-88 0 -215 -43l-63 180q195 64 346 64q154 0 239.5 -64t84.5 -182v-434h-275v76q-69 -88 -205 -88q-111 0 -173 57t-62 154zM297 1159q0 -61 68 -61t108 55v61h-108q-32 0 -50 -14.5t-18 -40.5z" />
<glyph unicode="&#xab;" horiz-adv-x="1077" d="M-18 553l251 387h332l-217 -387l217 -389h-332zM479 553l250 387h334l-219 -387l219 -389h-334z" />
<glyph unicode="&#xac;" horiz-adv-x="1202" d="M63 639v260h1020v-629h-295v369h-725z" />
<glyph unicode="&#xad;" horiz-adv-x="772" d="M106 502v258h560v-258h-560z" />
<glyph unicode="&#xae;" horiz-adv-x="1464" d="M39 713q0 140 54 268.5t146 223t221 150.5t273 56q143 0 271.5 -55t220.5 -148.5t146 -221.5t54 -269q0 -140 -54.5 -268.5t-146.5 -223t-221.5 -151t-273.5 -56.5q-143 0 -271.5 55.5t-220 149.5t-145 222t-53.5 268zM225 713q0 -138 66 -254.5t182 -185t256 -68.5 q141 0 259 69.5t184.5 187t66.5 255.5t-66.5 254.5t-183 185t-256.5 68.5q-141 0 -258 -69.5t-183.5 -187t-66.5 -255.5zM467 422v635h287q127 0 197.5 -58.5t70.5 -164.5q0 -144 -109 -205l131 -207h-210l-86 172h-95v-172h-186zM653 735h101q43 0 66.5 23.5t23.5 66.5 t-23.5 66.5t-66.5 23.5h-101v-180z" />
<glyph unicode="&#xb0;" horiz-adv-x="796" d="M174 1436q0 101 72.5 173t173.5 72t173.5 -72t72.5 -173t-72.5 -172.5t-173.5 -71.5t-173.5 71.5t-72.5 172.5zM330 1436q0 -37 26.5 -62.5t63.5 -25.5t63.5 25.5t26.5 62.5t-26.5 63.5t-63.5 26.5t-63.5 -26.5t-26.5 -63.5z" />
<glyph unicode="&#xb1;" d="M63 -16v260h928v-260h-928zM63 709v247h336v320h258v-320h334v-247h-334v-320h-258v320h-336z" />
<glyph unicode="&#xb4;" horiz-adv-x="716" d="M70 1219l219 368l358 -119l-274 -249h-303z" />
<glyph unicode="&#xb5;" horiz-adv-x="1409" d="M135 -397v1511h414v-590q0 -82 41 -130t110 -48q77 1 123.5 61t46.5 156v551h414v-1114h-414v166q-111 -175 -321 -184v-379h-414z" />
<glyph unicode="&#xb6;" horiz-adv-x="1368" d="M-16 1065q0 72 17.5 136.5t56.5 123.5t98 101.5t147 68t197 25.5h747v-1737h-305v1507h-174v-1507h-305v846h-49q-98 0 -175.5 29.5t-124 74.5t-77 105.5t-42 115.5t-11.5 111z" />
<glyph unicode="&#xb7;" horiz-adv-x="520" d="M68 596q0 83 53.5 136.5t136.5 53.5q86 0 139.5 -53t53.5 -137q0 -86 -53.5 -139.5t-139.5 -53.5q-84 0 -137 53.5t-53 139.5z" />
<glyph unicode="&#xb8;" horiz-adv-x="716" d="M121 -428l74 168q41 -41 92 -41q36 0 58 19.5t22 50.5q0 33 -24.5 52t-66.5 19q-23 0 -73 -8l100 201h227l-71 -137q63 -20 100 -65t37 -103q0 -101 -75 -162.5t-199 -61.5q-46 0 -101.5 18.5t-99.5 49.5z" />
<glyph unicode="&#xba;" horiz-adv-x="851" d="M33 1272q0 158 106.5 251t286.5 93t287.5 -93t107.5 -251q0 -155 -107.5 -248.5t-287.5 -93.5t-286.5 93t-106.5 249zM315 1270q0 -60 30 -96.5t81 -36.5q50 0 80.5 36.5t30.5 96.5t-30.5 96.5t-80.5 36.5q-51 0 -81 -36.5t-30 -96.5z" />
<glyph unicode="&#xbb;" horiz-adv-x="1081" d="M29 164l217 387l-217 389h331l252 -389l-252 -387h-331zM526 164l217 387l-217 389h332l252 -389l-252 -387h-332z" />
<glyph unicode="&#xbf;" horiz-adv-x="995" d="M45 31q0 61 17 115t44.5 93t60.5 75t66.5 68.5t61 65.5t44.5 74.5t17 87.5h308q0 -86 -24.5 -154t-59.5 -110.5t-70 -79.5t-59.5 -79.5t-24.5 -90.5q0 -106 117 -106q66 0 99 42.5t34 131.5l317 -2q-1 -235 -130.5 -366.5t-358.5 -131.5q-216 0 -337.5 96.5t-121.5 270.5 zM322 936q0 86 54 140t140 54q85 0 139 -54t54 -140q0 -85 -54 -139t-139 -54q-86 0 -140 54t-54 139z" />
<glyph unicode="&#xc0;" horiz-adv-x="1609" d="M-16 0l612 1436h438l592 -1436h-455l-84 229h-579l-86 -229h-438zM436 1790l359 119l219 -369h-303zM627 541h348l-172 469z" />
<glyph unicode="&#xc1;" horiz-adv-x="1609" d="M-16 0l612 1436h438l592 -1436h-455l-84 229h-579l-86 -229h-438zM606 1540l219 369l359 -119l-275 -250h-303zM627 541h348l-172 469z" />
<glyph unicode="&#xc2;" horiz-adv-x="1609" d="M-16 0l612 1436h438l592 -1436h-455l-84 229h-579l-86 -229h-438zM408 1567l239 321h320l239 -321h-284l-115 170l-115 -170h-284zM627 541h348l-172 469z" />
<glyph unicode="&#xc3;" horiz-adv-x="1609" d="M-16 0l612 1436h438l592 -1436h-455l-84 229h-579l-86 -229h-438zM424 1585q0 178 56.5 264t172.5 86q42 0 81 -13.5t62.5 -30.5t48 -30.5t40.5 -13.5q55 0 55 82h250q0 -178 -55.5 -264t-171.5 -86q-43 0 -82.5 13.5t-62.5 30.5t-47.5 30.5t-41.5 13.5q-53 0 -53 -82 h-252zM627 541h348l-172 469z" />
<glyph unicode="&#xc4;" horiz-adv-x="1609" d="M-16 0l612 1436h438l592 -1436h-455l-84 229h-579l-86 -229h-438zM424 1747q0 76 49.5 125t126.5 49t126.5 -49t49.5 -125q0 -77 -50 -126.5t-126 -49.5t-126 49.5t-50 126.5zM627 541h348l-172 469zM838 1747q0 76 49.5 125t126.5 49t126.5 -49t49.5 -125 q0 -77 -50 -126.5t-126 -49.5t-126 49.5t-50 126.5z" />
<glyph unicode="&#xc5;" horiz-adv-x="1609" d="M-16 0l604 1417q-43 68 -43 148q0 113 77.5 190.5t190.5 77.5q114 0 192 -77.5t78 -190.5q0 -81 -43 -146l586 -1419h-455l-84 229h-579l-86 -229h-438zM627 541h348l-172 469zM715 1565q0 -41 28.5 -69t69.5 -28t69.5 28t28.5 69t-28.5 68.5t-69.5 27.5t-69.5 -27.5 t-28.5 -68.5z" />
<glyph unicode="&#xc6;" horiz-adv-x="2308" d="M-16 0l807 1436h1413v-328h-748v-225h678v-328h-678v-227h768v-328h-1194v272h-465l-139 -272h-442zM723 580h307v530h-37z" />
<glyph unicode="&#xc7;" horiz-adv-x="1413" d="M39 721q0 206 100 372.5t276.5 260.5t395.5 94q163 0 324.5 -68.5t269.5 -185.5l-246 -291q-68 87 -160.5 139t-181.5 52q-146 0 -244 -105.5t-98 -263.5t98 -264.5t244 -106.5q83 0 175.5 45.5t166.5 120.5l246 -262q-96 -104 -227.5 -174t-268.5 -92l-49 -96 q63 -20 100 -65t37 -103q0 -101 -75 -162.5t-199 -61.5q-46 0 -101.5 18.5t-99.5 49.5l74 168q41 -41 92 -41q36 0 58 19.5t22 50.5q0 33 -24 52t-66 19q-24 0 -74 -8l78 158q-284 37 -463.5 239.5t-179.5 491.5z" />
<glyph unicode="&#xc8;" horiz-adv-x="1398" d="M121 0v1436h1173v-328h-747v-225h678v-328h-678v-227h768v-328h-1194zM342 1790l358 119l220 -369h-304z" />
<glyph unicode="&#xc9;" horiz-adv-x="1398" d="M121 0v1436h1173v-328h-747v-225h678v-328h-678v-227h768v-328h-1194zM512 1540l219 369l359 -119l-275 -250h-303z" />
<glyph unicode="&#xca;" horiz-adv-x="1398" d="M121 0v1436h1173v-328h-747v-225h678v-328h-678v-227h768v-328h-1194zM311 1569l240 321h319l240 -321h-285l-114 170l-115 -170h-285z" />
<glyph unicode="&#xcb;" horiz-adv-x="1398" d="M121 0v1436h1173v-328h-747v-225h678v-328h-678v-227h768v-328h-1194zM328 1747q0 76 49.5 125t126.5 49t126.5 -49t49.5 -125q0 -77 -50 -126.5t-126 -49.5t-126 49.5t-50 126.5zM741 1747q0 76 50 125t127 49t126.5 -49t49.5 -125q0 -77 -50 -126.5t-126 -49.5 q-77 0 -127 50t-50 126z" />
<glyph unicode="&#xcc;" horiz-adv-x="667" d="M-37 1790l359 119l219 -369h-303zM121 0v1436h426v-1436h-426z" />
<glyph unicode="&#xcd;" horiz-adv-x="667" d="M121 0v1436h426v-1436h-426zM133 1540l219 369l359 -119l-275 -250h-303z" />
<glyph unicode="&#xce;" horiz-adv-x="667" d="M-66 1567l240 321h320l239 -321h-284l-115 170l-115 -170h-285zM121 0v1436h426v-1436h-426z" />
<glyph unicode="&#xcf;" horiz-adv-x="667" d="M-49 1747q0 76 49.5 125t126.5 49t126.5 -49t49.5 -125q0 -77 -49.5 -126.5t-126.5 -49.5t-126.5 49.5t-49.5 126.5zM121 0v1436h426v-1436h-426zM365 1747q0 76 49.5 125t126.5 49t126.5 -49t49.5 -125q0 -77 -49.5 -126.5t-126.5 -49.5t-126.5 49.5t-49.5 126.5z" />
<glyph unicode="&#xd0;" horiz-adv-x="1640" d="M0 608v221h199v607h630q229 0 404.5 -88.5t272 -251.5t96.5 -377q0 -160 -57 -294t-159.5 -227.5t-250 -145.5t-322.5 -52h-614v608h-199zM625 334h215q146 0 235.5 104.5t89.5 276.5q0 173 -96 279t-250 106h-194v-271h284v-221h-284v-274z" />
<glyph unicode="&#xd1;" horiz-adv-x="1603" d="M121 0v1436h364l609 -803v803h389v-1436h-363l-608 799v-799h-391zM420 1585q0 178 56.5 264t172.5 86q42 0 81 -13.5t62.5 -30.5t48 -30.5t40.5 -13.5q55 0 55 82h250q0 -178 -56 -264t-172 -86q-55 0 -101.5 22t-79 44t-52.5 22q-53 0 -53 -82h-252z" />
<glyph unicode="&#xd2;" horiz-adv-x="1642" d="M39 719q0 208 101 375t279.5 260.5t401.5 93.5q167 0 312.5 -55t248.5 -151.5t162.5 -232t59.5 -290.5q0 -156 -59.5 -293t-162.5 -234.5t-248.5 -153.5t-312.5 -56q-222 0 -401 95t-280 264t-101 378zM434 1790l359 119l219 -369h-303zM475 717q0 -160 104.5 -269.5 t247.5 -109.5q142 0 241 109t99 270t-98.5 268t-241.5 107q-145 0 -248.5 -107.5t-103.5 -267.5z" />
<glyph unicode="&#xd3;" horiz-adv-x="1642" d="M39 719q0 208 101 375t279.5 260.5t401.5 93.5q167 0 312.5 -55t248.5 -151.5t162.5 -232t59.5 -290.5q0 -156 -59.5 -293t-162.5 -234.5t-248.5 -153.5t-312.5 -56q-222 0 -401 95t-280 264t-101 378zM475 717q0 -160 104.5 -269.5t247.5 -109.5q142 0 241 109t99 270 t-98.5 268t-241.5 107q-145 0 -248.5 -107.5t-103.5 -267.5zM604 1540l219 369l359 -119l-275 -250h-303z" />
<glyph unicode="&#xd4;" horiz-adv-x="1642" d="M39 719q0 208 101 375t279.5 260.5t401.5 93.5q167 0 312.5 -55t248.5 -151.5t162.5 -232t59.5 -290.5q0 -156 -59.5 -293t-162.5 -234.5t-248.5 -153.5t-312.5 -56q-222 0 -401 95t-280 264t-101 378zM403 1569l240 321h320l239 -321h-284l-115 170l-115 -170h-285z M475 717q0 -160 104.5 -269.5t247.5 -109.5q142 0 241 109t99 270t-98.5 268t-241.5 107q-145 0 -248.5 -107.5t-103.5 -267.5z" />
<glyph unicode="&#xd5;" horiz-adv-x="1642" d="M39 719q0 208 101 375t279.5 260.5t401.5 93.5q167 0 312.5 -55t248.5 -151.5t162.5 -232t59.5 -290.5q0 -156 -59.5 -293t-162.5 -234.5t-248.5 -153.5t-312.5 -56q-222 0 -401 95t-280 264t-101 378zM420 1585q0 178 56.5 264t172.5 86q42 0 81 -13.5t62.5 -30.5 t48 -30.5t40.5 -13.5q55 0 55 82h250q0 -178 -56 -264t-172 -86q-55 0 -101.5 22t-79 44t-52.5 22q-53 0 -53 -82h-252zM475 717q0 -160 104.5 -269.5t247.5 -109.5q142 0 241 109t99 270t-98.5 268t-241.5 107q-145 0 -248.5 -107.5t-103.5 -267.5z" />
<glyph unicode="&#xd6;" horiz-adv-x="1642" d="M39 719q0 208 101 375t279.5 260.5t401.5 93.5q167 0 312.5 -55t248.5 -151.5t162.5 -232t59.5 -290.5q0 -156 -59.5 -293t-162.5 -234.5t-248.5 -153.5t-312.5 -56q-222 0 -401 95t-280 264t-101 378zM420 1747q0 76 49.5 125t126.5 49t126.5 -49t49.5 -125 q0 -77 -50 -126.5t-126 -49.5t-126 49.5t-50 126.5zM475 717q0 -160 104.5 -269.5t247.5 -109.5q142 0 241 109t99 270t-98.5 268t-241.5 107q-145 0 -248.5 -107.5t-103.5 -267.5zM834 1747q0 76 49.5 125t126.5 49t126.5 -49t49.5 -125q0 -77 -50 -126.5t-126 -49.5 t-126 49.5t-50 126.5z" />
<glyph unicode="&#xd8;" horiz-adv-x="1642" d="M39 719q0 208 101 375t279.5 260.5t401.5 93.5q45 0 131 -8l76 211h236l-97 -271q201 -88 319 -262.5t118 -398.5q0 -156 -59.5 -293t-162.5 -234.5t-248.5 -153.5t-312.5 -56q-77 0 -147 12l-78 -217h-236l101 280q-195 91 -308.5 266t-113.5 396zM475 717 q0 -173 119 -285l233 660q-145 0 -248.5 -107.5t-103.5 -267.5zM797 340l30 -2q142 0 241 109t99 270q0 92 -34.5 169.5t-94.5 129.5z" />
<glyph unicode="&#xd9;" horiz-adv-x="1546" d="M98 606v830h426v-830q0 -122 73 -195t183 -73q108 0 175 72t67 196v830h426v-830q0 -286 -181.5 -455t-488.5 -169q-310 0 -495 169.5t-185 454.5zM406 1790l358 119l219 -369h-303z" />
<glyph unicode="&#xda;" horiz-adv-x="1546" d="M98 606v830h426v-830q0 -122 73 -195t183 -73q108 0 175 72t67 196v830h426v-830q0 -286 -181.5 -455t-488.5 -169q-310 0 -495 169.5t-185 454.5zM575 1540l220 369l358 -119l-274 -250h-304z" />
<glyph unicode="&#xdb;" horiz-adv-x="1546" d="M98 606v830h426v-830q0 -122 73 -195t183 -73q108 0 175 72t67 196v830h426v-830q0 -286 -181.5 -455t-488.5 -169q-310 0 -495 169.5t-185 454.5zM375 1567l239 321h320l240 -321h-285l-115 170l-115 -170h-284z" />
<glyph unicode="&#xdc;" horiz-adv-x="1546" d="M98 606v830h426v-830q0 -122 73 -195t183 -73q108 0 175 72t67 196v830h426v-830q0 -286 -181.5 -455t-488.5 -169q-310 0 -495 169.5t-185 454.5zM391 1747q0 76 49.5 125t126.5 49t126.5 -49t49.5 -125q0 -77 -49.5 -126.5t-126.5 -49.5t-126.5 49.5t-49.5 126.5z M805 1747q0 76 49.5 125t126.5 49t126.5 -49t49.5 -125q0 -77 -49.5 -126.5t-126.5 -49.5t-126.5 49.5t-49.5 126.5z" />
<glyph unicode="&#xdd;" horiz-adv-x="1437" d="M-16 1436h426l313 -586l305 586h424l-516 -981v-455h-426v446zM520 1540l219 369l359 -119l-275 -250h-303z" />
<glyph unicode="&#xde;" horiz-adv-x="1421" d="M121 0v1436h426v-183h225q280 0 443 -134.5t163 -366.5q0 -246 -163 -389.5t-443 -143.5h-225v-219h-426zM547 543h207q88 0 137 52t49 144q0 88 -49.5 138.5t-136.5 50.5h-207v-385z" />
<glyph unicode="&#xdf;" horiz-adv-x="1366" d="M98 0v1012q0 241 155.5 383.5t416.5 142.5q252 0 403.5 -113.5t151.5 -302.5q0 -99 -48 -190.5t-128 -145.5q120 -37 192 -129.5t72 -214.5q0 -200 -159.5 -321t-424.5 -121h-98v291h63q217 0 217 158q0 151 -229 151h-43v291q184 0 184 170t-149 170q-162 0 -162 -189 v-1042h-414z" />
<glyph unicode="&#xe0;" horiz-adv-x="1243" d="M41 332q0 162 110 248.5t320 89.5h272v4q0 70 -49 108.5t-143 38.5q-150 0 -336 -80l-102 275q280 114 536 114q235 0 367.5 -107t132.5 -300v-723h-406v123q-107 -141 -325 -141q-176 0 -276.5 95.5t-100.5 254.5zM254 1468l358 119l219 -368h-303zM430 362 q0 -53 32.5 -81.5t92.5 -28.5q63 0 114 31t74 84v100h-188q-125 0 -125 -105z" />
<glyph unicode="&#xe1;" horiz-adv-x="1243" d="M41 332q0 162 110 248.5t320 89.5h272v4q0 70 -49 108.5t-143 38.5q-150 0 -336 -80l-102 275q280 114 536 114q235 0 367.5 -107t132.5 -300v-723h-406v123q-107 -141 -325 -141q-176 0 -276.5 95.5t-100.5 254.5zM424 1219l219 368l358 -119l-274 -249h-303zM430 362 q0 -53 32.5 -81.5t92.5 -28.5q63 0 114 31t74 84v100h-188q-125 0 -125 -105z" />
<glyph unicode="&#xe2;" horiz-adv-x="1243" d="M41 332q0 162 110 248.5t320 89.5h272v4q0 70 -49 108.5t-143 38.5q-150 0 -336 -80l-102 275q280 114 536 114q235 0 367.5 -107t132.5 -300v-723h-406v123q-107 -141 -325 -141q-176 0 -276.5 95.5t-100.5 254.5zM223 1245l240 322h319l240 -322h-285l-114 170 l-115 -170h-285zM430 362q0 -53 32.5 -81.5t92.5 -28.5q63 0 114 31t74 84v100h-188q-125 0 -125 -105z" />
<glyph unicode="&#xe3;" horiz-adv-x="1243" d="M41 332q0 162 110 248.5t320 89.5h272v4q0 70 -49 108.5t-143 38.5q-150 0 -336 -80l-102 275q280 114 536 114q235 0 367.5 -107t132.5 -300v-723h-406v123q-107 -141 -325 -141q-176 0 -276.5 95.5t-100.5 254.5zM240 1264q0 178 56.5 264t172.5 86q42 0 80.5 -14 t62 -30t48 -30t40.5 -14q56 0 56 82h250q0 -178 -56 -264.5t-172 -86.5q-55 0 -101.5 22.5t-79 44.5t-52.5 22q-53 0 -53 -82h-252zM430 362q0 -53 32.5 -81.5t92.5 -28.5q63 0 114 31t74 84v100h-188q-125 0 -125 -105z" />
<glyph unicode="&#xe4;" horiz-adv-x="1243" d="M41 332q0 162 110 248.5t320 89.5h272v4q0 70 -49 108.5t-143 38.5q-150 0 -336 -80l-102 275q280 114 536 114q235 0 367.5 -107t132.5 -300v-723h-406v123q-107 -141 -325 -141q-176 0 -276.5 95.5t-100.5 254.5zM240 1425q0 76 49.5 125t126.5 49t126.5 -49t49.5 -125 q0 -77 -50 -126.5t-126 -49.5t-126 49.5t-50 126.5zM430 362q0 -53 32.5 -81.5t92.5 -28.5q63 0 114 31t74 84v100h-188q-125 0 -125 -105zM653 1425q0 76 49.5 125t126.5 49t127 -49t50 -125t-50 -126t-127 -50t-126.5 49.5t-49.5 126.5z" />
<glyph unicode="&#xe5;" horiz-adv-x="1243" d="M41 332q0 162 110 248.5t320 89.5h272v4q0 70 -49 108.5t-143 38.5q-150 0 -336 -80l-102 275q280 114 536 114q235 0 367.5 -107t132.5 -300v-723h-406v123q-107 -141 -325 -141q-176 0 -276.5 95.5t-100.5 254.5zM371 1432q0 104 73.5 176.5t178.5 72.5 q104 0 177.5 -72.5t73.5 -176.5t-73.5 -177t-177.5 -73t-178 73t-74 177zM430 362q0 -53 32.5 -81.5t92.5 -28.5q63 0 114 31t74 84v100h-188q-125 0 -125 -105zM530 1432q0 -38 27.5 -65.5t65.5 -27.5t65 27.5t27 65.5t-27 65t-65 27t-65.5 -27t-27.5 -65z" />
<glyph unicode="&#xe6;" horiz-adv-x="1968" d="M41 330q0 161 111 246t321 88h275v10q0 70 -49.5 108.5t-143.5 38.5q-152 0 -348 -80l-94 277q286 112 538 112q234 0 363 -102q130 100 329 100q285 0 444 -181t142 -482h-760q23 -84 81 -129t141 -45q133 0 245 106l215 -211q-181 -200 -497 -200q-310 0 -453 217 q-136 -223 -448 -223q-190 0 -301 96t-111 254zM430 362q0 -54 33.5 -85t93.5 -31q127 0 193 114v109h-191q-62 0 -95.5 -27.5t-33.5 -79.5zM1163 659h353q3 83 -45 137t-125 54q-71 0 -119.5 -52t-63.5 -139z" />
<glyph unicode="&#xe7;" horiz-adv-x="1150" d="M39 553q0 260 160 417.5t424 157.5q175 0 309 -76t205 -214l-318 -156q-62 111 -178 111q-83 0 -133.5 -66t-50.5 -172q0 -109 50.5 -175.5t133.5 -66.5q125 0 176 123l322 -162q-52 -113 -152.5 -184t-238.5 -94l-54 -100q63 -20 100 -65t37 -103q0 -101 -75 -162.5 t-199 -61.5q-46 0 -101.5 18.5t-99.5 49.5l74 168q41 -41 92 -41q36 0 58 19.5t22 50.5q0 33 -24 52t-66 19q-24 0 -74 -8l80 160q-220 29 -349.5 180t-129.5 381z" />
<glyph unicode="&#xe8;" horiz-adv-x="1247" d="M39 553q0 260 161.5 417.5t426.5 157.5q291 0 444.5 -180.5t134.5 -490.5h-749q25 -80 81.5 -123t135.5 -43q131 0 246 106l215 -211q-181 -200 -496 -200q-278 0 -439 154.5t-161 412.5zM250 1468l358 119l219 -368h-303zM449 659h350q1 83 -46 136t-122 53 q-71 0 -119 -51.5t-63 -137.5z" />
<glyph unicode="&#xe9;" horiz-adv-x="1247" d="M39 553q0 260 161.5 417.5t426.5 157.5q291 0 444.5 -180.5t134.5 -490.5h-749q25 -80 81.5 -123t135.5 -43q131 0 246 106l215 -211q-181 -200 -496 -200q-278 0 -439 154.5t-161 412.5zM420 1219l219 368l358 -119l-274 -249h-303zM449 659h350q1 83 -46 136t-122 53 q-71 0 -119 -51.5t-63 -137.5z" />
<glyph unicode="&#xea;" horiz-adv-x="1247" d="M39 553q0 260 161.5 417.5t426.5 157.5q291 0 444.5 -180.5t134.5 -490.5h-749q25 -80 81.5 -123t135.5 -43q131 0 246 106l215 -211q-181 -200 -496 -200q-278 0 -439 154.5t-161 412.5zM219 1245l240 322h319l240 -322h-285l-115 170l-114 -170h-285zM449 659h350 q1 83 -46 136t-122 53q-71 0 -119 -51.5t-63 -137.5z" />
<glyph unicode="&#xeb;" horiz-adv-x="1247" d="M39 553q0 260 161.5 417.5t426.5 157.5q291 0 444.5 -180.5t134.5 -490.5h-749q25 -80 81.5 -123t135.5 -43q131 0 246 106l215 -211q-181 -200 -496 -200q-278 0 -439 154.5t-161 412.5zM236 1425q0 76 49.5 125t126.5 49t126.5 -49t49.5 -125q0 -77 -50 -126.5 t-126 -49.5t-126 49.5t-50 126.5zM449 659h350q1 83 -46 136t-122 53q-71 0 -119 -51.5t-63 -137.5zM649 1425q0 76 49.5 125t126.5 49t126.5 -49t49.5 -125q0 -77 -49.5 -126.5t-126.5 -49.5t-126.5 49.5t-49.5 126.5z" />
<glyph unicode="&#xec;" horiz-adv-x="663" d="M-37 1468l359 119l219 -368h-303zM125 0v1114h414v-1114h-414z" />
<glyph unicode="&#xed;" horiz-adv-x="663" d="M125 0v1114h414v-1114h-414zM133 1219l219 368l359 -119l-275 -249h-303z" />
<glyph unicode="&#xee;" horiz-adv-x="663" d="M-66 1245l240 322h320l239 -322h-284l-115 170l-115 -170h-285zM125 0v1114h414v-1114h-414z" />
<glyph unicode="&#xef;" horiz-adv-x="663" d="M-49 1425q0 76 49.5 125t126.5 49t126.5 -49t49.5 -125q0 -77 -49.5 -126.5t-126.5 -49.5t-126.5 49.5t-49.5 126.5zM125 0v1114h414v-1114h-414zM365 1425q0 76 49.5 125t126.5 49t126.5 -49t49.5 -125q0 -77 -49.5 -126.5t-126.5 -49.5t-126.5 49.5t-49.5 126.5z" />
<glyph unicode="&#xf0;" horiz-adv-x="1251" d="M31 463q0 206 126.5 329t338.5 123q92 0 177 -27t134 -73q-50 134 -182 266l-346 -118l-64 186l231 80q-120 81 -258 143l277 166q196 -72 344 -186l303 104l62 -188l-199 -68q115 -128 176 -281.5t61 -316.5q0 -283 -171.5 -451.5t-458.5 -168.5q-252 0 -401.5 130.5 t-149.5 350.5zM426 483q0 -73 46.5 -117t123.5 -44q80 0 127 43t47 116q0 72 -47.5 116t-126.5 44q-78 0 -124 -43t-46 -115z" />
<glyph unicode="&#xf1;" horiz-adv-x="1388" d="M125 0v1114h414v-172q119 188 354 188q180 0 290.5 -115.5t110.5 -307.5v-707h-413v588q0 83 -44 131.5t-116 48.5q-84 -1 -133 -61t-49 -156v-551h-414zM348 1264q0 178 57 264t173 86q53 0 99.5 -22t79.5 -44t52 -22q55 0 55 82h250q0 -179 -56 -265t-171 -86 q-55 0 -102 22.5t-79.5 44.5t-52.5 22q-53 0 -53 -82h-252z" />
<glyph unicode="&#xf2;" horiz-adv-x="1316" d="M39 557q0 259 169.5 415t450.5 156t450 -156t169 -415q0 -258 -169 -414.5t-450 -156.5t-450.5 156.5t-169.5 414.5zM289 1468l358 119l219 -368h-303zM457 553q0 -113 55 -180.5t147 -67.5q91 0 146 68t55 180q0 111 -55.5 179.5t-145.5 68.5q-92 0 -147 -68.5 t-55 -179.5z" />
<glyph unicode="&#xf3;" horiz-adv-x="1316" d="M39 557q0 259 169.5 415t450.5 156t450 -156t169 -415q0 -258 -169 -414.5t-450 -156.5t-450.5 156.5t-169.5 414.5zM457 553q0 -113 55 -180.5t147 -67.5q91 0 146 68t55 180q0 111 -55.5 179.5t-145.5 68.5q-92 0 -147 -68.5t-55 -179.5zM459 1219l219 368l358 -119 l-274 -249h-303z" />
<glyph unicode="&#xf4;" horiz-adv-x="1316" d="M39 557q0 259 169.5 415t450.5 156t450 -156t169 -415q0 -258 -169 -414.5t-450 -156.5t-450.5 156.5t-169.5 414.5zM260 1245l240 322h319l240 -322h-285l-115 170l-114 -170h-285zM457 553q0 -113 55 -180.5t147 -67.5q91 0 146 68t55 180q0 111 -55.5 179.5 t-145.5 68.5q-92 0 -147 -68.5t-55 -179.5z" />
<glyph unicode="&#xf5;" horiz-adv-x="1316" d="M39 557q0 259 169.5 415t450.5 156t450 -156t169 -415q0 -258 -169 -414.5t-450 -156.5t-450.5 156.5t-169.5 414.5zM276 1264q0 178 57 264t173 86q53 0 99.5 -22t79.5 -44t52 -22q56 0 56 82h249q0 -179 -56 -265t-171 -86q-55 0 -101.5 22.5t-79 44.5t-52.5 22 q-54 0 -54 -82h-252zM457 553q0 -113 55 -180.5t147 -67.5q91 0 146 68t55 180q0 111 -55.5 179.5t-145.5 68.5q-92 0 -147 -68.5t-55 -179.5z" />
<glyph unicode="&#xf6;" horiz-adv-x="1316" d="M39 557q0 259 169.5 415t450.5 156t450 -156t169 -415q0 -258 -169 -414.5t-450 -156.5t-450.5 156.5t-169.5 414.5zM276 1425q0 76 50 125t127 49t126.5 -49t49.5 -125q0 -77 -49.5 -126.5t-126.5 -49.5t-127 50t-50 126zM457 553q0 -113 55 -180.5t147 -67.5 q91 0 146 68t55 180q0 111 -55.5 179.5t-145.5 68.5q-92 0 -147 -68.5t-55 -179.5zM690 1425q0 76 49.5 125t126.5 49t126.5 -49t49.5 -125q0 -77 -50 -126.5t-126 -49.5t-126 49.5t-50 126.5z" />
<glyph unicode="&#xf7;" d="M63 543v258h928v-258h-928zM336 305q0 77 49 125.5t125 48.5q78 0 127 -48.5t49 -125.5t-49 -126.5t-127 -49.5q-76 0 -125 49.5t-49 126.5zM336 1040q0 76 49 125t125 49q78 0 127 -48.5t49 -125.5q0 -78 -49 -127t-127 -49q-77 0 -125.5 49t-48.5 127z" />
<glyph unicode="&#xf8;" horiz-adv-x="1316" d="M39 557q0 259 169.5 415t450.5 156q55 0 105 -6l84 258h164l-97 -293q170 -61 266.5 -199.5t96.5 -330.5q0 -258 -169 -414.5t-450 -156.5q-53 0 -102 6l-90 -279h-164l103 314q-172 61 -269.5 199.5t-97.5 330.5zM430 553q0 -145 76 -221l164 502h-11 q-104 0 -166.5 -76.5t-62.5 -204.5zM649 270h10q103 0 166.5 77.5t63.5 205.5q0 140 -76 219z" />
<glyph unicode="&#xf9;" horiz-adv-x="1368" d="M94 408v706h414v-590q0 -81 40.5 -129.5t108.5 -48.5q79 1 125.5 61t46.5 156v551h414v-1114h-414v166q-118 -184 -342 -184q-176 0 -284.5 116t-108.5 310zM303 1468l359 119l219 -368h-303z" />
<glyph unicode="&#xfa;" horiz-adv-x="1368" d="M94 408v706h414v-590q0 -81 40.5 -129.5t108.5 -48.5q79 1 125.5 61t46.5 156v551h414v-1114h-414v166q-118 -184 -342 -184q-176 0 -284.5 116t-108.5 310zM473 1219l219 368l359 -119l-275 -249h-303z" />
<glyph unicode="&#xfb;" horiz-adv-x="1368" d="M94 408v706h414v-590q0 -81 40.5 -129.5t108.5 -48.5q79 1 125.5 61t46.5 156v551h414v-1114h-414v166q-118 -184 -342 -184q-176 0 -284.5 116t-108.5 310zM274 1245l240 322h320l239 -322h-285l-114 170l-115 -170h-285z" />
<glyph unicode="&#xfc;" horiz-adv-x="1368" d="M94 408v706h414v-590q0 -81 40.5 -129.5t108.5 -48.5q79 1 125.5 61t46.5 156v551h414v-1114h-414v166q-118 -184 -342 -184q-176 0 -284.5 116t-108.5 310zM291 1425q0 76 49.5 125t126.5 49t126.5 -49t49.5 -125q0 -77 -49.5 -126.5t-126.5 -49.5t-126.5 49.5 t-49.5 126.5zM705 1425q0 76 49.5 125t126.5 49t126.5 -49t49.5 -125q0 -77 -49.5 -126.5t-126.5 -49.5t-126.5 49.5t-49.5 126.5z" />
<glyph unicode="&#xfd;" horiz-adv-x="1239" d="M-33 -293l172 277q73 -64 150 -64q84 0 121 72l20 39l-461 1083h424l244 -682l207 682h411l-467 -1208q-129 -322 -462 -322q-196 0 -359 123zM420 1219l219 368l358 -119l-274 -249h-303z" />
<glyph unicode="&#xfe;" horiz-adv-x="1409" d="M135 -397v1917h414v-535q115 143 305 143q233 0 374.5 -158t141.5 -419q0 -257 -138 -411t-368 -154q-197 0 -315 143v-526h-414zM549 561q0 -110 56 -179t145 -69q92 0 147 68.5t55 179.5t-55 179.5t-147 68.5q-89 0 -145 -69t-56 -179z" />
<glyph unicode="&#xff;" horiz-adv-x="1239" d="M-33 -293l172 277q73 -64 150 -64q84 0 121 72l20 39l-461 1083h424l244 -682l207 682h411l-467 -1208q-129 -322 -462 -322q-196 0 -359 123zM238 1425q0 76 49.5 125t126.5 49t126.5 -49t49.5 -125q0 -77 -50 -126.5t-126 -49.5t-126 49.5t-50 126.5zM651 1425 q0 76 49.5 125t126.5 49t127 -49t50 -125t-50 -126t-127 -50t-126.5 49.5t-49.5 126.5z" />
<glyph unicode="&#x104;" horiz-adv-x="1609" d="M-16 0l612 1436h438l592 -1436h-123q-84 -122 -84 -174q0 -39 37 -39q40 0 80 63l102 -120q-39 -71 -100 -108.5t-133 -37.5q-35 0 -66.5 8.5t-60.5 27.5t-46.5 54.5t-17.5 83.5q0 102 93 242h-136l-84 229h-577l-88 -229h-438zM625 541h350l-172 469z" />
<glyph unicode="&#x105;" horiz-adv-x="1253" d="M41 332q0 162 111 248.5t323 89.5h277v8q-3 68 -53.5 105.5t-143.5 37.5q-151 0 -340 -80l-102 275q283 114 538 114q240 0 373 -107t133 -300v-723h-90q-84 -122 -84 -174q0 -18 10.5 -28.5t26.5 -10.5q40 0 80 63l104 -120q-41 -71 -102 -108.5t-133 -37.5 q-34 0 -65.5 8.5t-61 27.5t-47 54.5t-17.5 83.5q0 104 94 242h-120v125q-108 -145 -330 -145q-178 0 -279.5 96.5t-101.5 255.5zM430 362q0 -52 33.5 -81t95.5 -29t115 31t78 82v102h-195q-127 0 -127 -105z" />
<glyph unicode="&#x106;" horiz-adv-x="1413" d="M39 721q0 206 100 372.5t276.5 260.5t395.5 94q163 0 324.5 -68.5t269.5 -185.5l-246 -291q-68 87 -160.5 139t-181.5 52q-146 0 -244 -105.5t-98 -263.5t98 -264.5t244 -106.5q83 0 175.5 45.5t166.5 120.5l246 -262q-117 -126 -281.5 -201t-326.5 -75q-161 0 -302 56 t-241 154t-157.5 235t-57.5 294zM598 1540l219 369l359 -119l-275 -250h-303z" />
<glyph unicode="&#x107;" horiz-adv-x="1150" d="M39 553q0 260 160 417.5t424 157.5q175 0 309 -76t205 -214l-318 -156q-62 111 -178 111q-83 0 -133.5 -66t-50.5 -172q0 -109 50.5 -175.5t133.5 -66.5q125 0 176 123l322 -162q-64 -138 -200 -213t-321 -75q-262 0 -420.5 155t-158.5 412zM406 1219l219 368l358 -119 l-274 -249h-303z" />
<glyph unicode="&#x118;" horiz-adv-x="1402" d="M121 0v1436h1177v-326h-751v-227h682v-324h-682v-235h772v-324h-152q-84 -125 -84 -174q0 -18 10.5 -28.5t26.5 -10.5q43 0 80 63l105 -120q-41 -71 -102.5 -108.5t-133.5 -37.5q-34 0 -65 8.5t-60 27.5t-46 54.5t-17 83.5q0 106 90 242h-850z" />
<glyph unicode="&#x119;" horiz-adv-x="1247" d="M39 553q0 171 72 301t205.5 201.5t310.5 72.5q288 1 443 -180t136 -491h-749q25 -80 81.5 -123t135.5 -43q134 0 246 106l215 -211q-230 -258 -230 -358q0 -20 9.5 -30.5t25.5 -10.5q40 0 80 63l102 -120q-84 -146 -233 -146q-34 0 -65.5 8.5t-60 27.5t-46 55t-17.5 85 q0 115 105 260q-78 -34 -168 -34q-276 0 -437 154.5t-161 412.5zM449 659h350q1 83 -46 136t-122 53q-72 0 -121 -52t-61 -137z" />
<glyph unicode="&#x131;" horiz-adv-x="663" d="M125 0v1114h414v-1114h-414z" />
<glyph unicode="&#x141;" horiz-adv-x="1216" d="M-47 848l211 61v527h426v-404l278 82l70 -250l-348 -100v-408h602v-356h-1028v641l-139 -41z" />
<glyph unicode="&#x142;" horiz-adv-x="757" d="M-72 872l265 76v572h413v-451l156 45l69 -250l-225 -65v-799h-413v680l-195 -55z" />
<glyph unicode="&#x143;" horiz-adv-x="1603" d="M121 0v1436h364l609 -803v803h389v-1436h-363l-608 799v-799h-391zM604 1540l219 369l359 -119l-275 -250h-303z" />
<glyph unicode="&#x144;" horiz-adv-x="1388" d="M125 0v1114h414v-172q119 188 354 188q180 0 290.5 -115.5t110.5 -307.5v-707h-413v588q0 83 -44 131.5t-116 48.5q-84 -1 -133 -61t-49 -156v-551h-414zM532 1219l220 368l358 -119l-274 -249h-304z" />
<glyph unicode="&#x152;" horiz-adv-x="2295" d="M39 715q0 152 59 286t161.5 229.5t248 150.5t311.5 55h1372v-328h-747v-225h678v-328h-678v-227h768v-328h-1393q-165 0 -309.5 54t-248 148t-163 227t-59.5 286zM475 713q0 -161 98 -267t246 -106l199 2v748h-199q-148 0 -246 -107t-98 -270z" />
<glyph unicode="&#x153;" horiz-adv-x="2064" d="M39 557q0 259 169.5 415t450.5 156q259 0 400 -163q135 163 377 163q285 0 444.5 -181t142.5 -482h-766q25 -84 83.5 -129t142.5 -45q133 0 248 106l215 -211q-181 -200 -500 -200q-256 0 -389 161q-142 -161 -398 -161q-281 0 -450.5 156.5t-169.5 414.5zM457 553 q0 -113 55 -180.5t147 -67.5q91 0 146 68t55 180q0 111 -55.5 179.5t-145.5 68.5q-92 0 -147 -68.5t-55 -179.5zM1251 659h359q3 83 -45 137t-125 54q-74 0 -124 -52t-65 -139z" />
<glyph unicode="&#x15a;" horiz-adv-x="1341" d="M25 215l159 324q109 -92 266 -156t269 -64q69 0 108 24.5t39 72.5q0 38 -32 66.5t-85 45t-120 35.5t-137.5 37t-137.5 51t-120 75.5t-85 113t-32 161.5q0 206 162.5 329.5t431.5 123.5q162 0 321.5 -45t278.5 -121l-158 -327q-114 65 -251.5 112t-225.5 47 q-56 0 -87.5 -19.5t-31.5 -58.5q0 -42 41.5 -72t107.5 -50t146 -40.5t160 -53t146 -78.5t107.5 -125.5t41.5 -184.5q0 -111 -47 -198.5t-128.5 -141.5t-187.5 -82t-229 -28q-184 0 -370 61t-320 166zM518 1540l219 369l359 -119l-275 -250h-303z" />
<glyph unicode="&#x15b;" horiz-adv-x="1095" d="M29 139l127 260q212 -137 403 -137q92 0 92 51q0 25 -31.5 44t-81.5 33.5t-111 31t-121.5 43t-110.5 62t-81.5 95.5t-31.5 138q0 173 130.5 273t344.5 100q255 0 490 -136l-138 -260q-228 117 -364 117q-84 0 -84 -53q0 -25 32 -44t83.5 -34t113 -31.5t123.5 -43.5 t113.5 -63.5t83.5 -96.5t32 -138q0 -170 -134 -269t-355 -99q-305 0 -524 157zM373 1219l219 368l358 -119l-274 -249h-303z" />
<glyph unicode="&#x178;" horiz-adv-x="1437" d="M-16 1436h426l313 -586l305 586h424l-516 -981v-455h-426v446zM336 1747q0 76 49.5 125t126.5 49t126.5 -49t49.5 -125q0 -77 -50 -126.5t-126 -49.5t-126 49.5t-50 126.5zM750 1747q0 76 49.5 125t126.5 49t126.5 -49t49.5 -125q0 -77 -50 -126.5t-126 -49.5t-126 49.5 t-50 126.5z" />
<glyph unicode="&#x179;" horiz-adv-x="1390" d="M49 0v268l713 836h-688v332h1255v-271l-713 -833h727v-332h-1294zM532 1540l220 369l358 -119l-274 -250h-304z" />
<glyph unicode="&#x17a;" horiz-adv-x="1148" d="M59 0v244l500 559h-479v311h999v-246l-499 -559h520v-309h-1041zM375 1219l219 368l358 -119l-274 -249h-303z" />
<glyph unicode="&#x17b;" horiz-adv-x="1390" d="M49 0v268l713 836h-688v332h1255v-271l-713 -833h727v-332h-1294zM520 1753q0 94 59.5 153.5t153.5 59.5t153.5 -59.5t59.5 -153.5t-59.5 -153.5t-153.5 -59.5t-153.5 59.5t-59.5 153.5z" />
<glyph unicode="&#x17c;" horiz-adv-x="1148" d="M59 0v244l500 559h-479v311h999v-246l-499 -559h520v-309h-1041zM362 1432q0 94 59.5 153.5t153.5 59.5t153.5 -59.5t59.5 -153.5t-59.5 -153.5t-153.5 -59.5t-153.5 59.5t-59.5 153.5z" />
<glyph unicode="&#x192;" horiz-adv-x="878" d="M-225 -336l102 283q50 -41 113 -41q45 -1 73.5 29t36.5 85l82 672h-151l32 262h152l27 213q22 170 149.5 272t317.5 101q89 0 176 -21.5t147 -58.5l-137 -282q-53 41 -117 41q-56 2 -91.5 -28.5t-41.5 -84.5l-18 -152h231l-33 -262h-231l-90 -735q-22 -171 -147.5 -272.5 t-317.5 -100.5q-71 0 -144 22t-120 58z" />
<glyph unicode="&#x2c6;" horiz-adv-x="716" d="M-41 1247l240 322h319l240 -322h-285l-115 170l-114 -170h-285z" />
<glyph unicode="&#x2da;" horiz-adv-x="716" d="M106 1432q0 104 73.5 176.5t178.5 72.5t178.5 -72.5t73.5 -176.5t-74 -177t-178 -73t-178 73t-74 177zM266 1432q0 -38 27 -65.5t65 -27.5t65.5 27.5t27.5 65.5t-27.5 65t-65.5 27t-65 -27t-27 -65z" />
<glyph unicode="&#x2dc;" horiz-adv-x="716" d="M-25 1264q0 178 57 264t173 86q42 0 80.5 -14t62 -30t48 -30t40.5 -14q56 0 56 82h249q0 -179 -56 -265t-171 -86q-55 0 -101.5 22.5t-79 44.5t-52.5 22q-54 0 -54 -82h-252z" />
<glyph unicode="&#x3a9;" horiz-adv-x="1726" d="M12 0v332h324q-91 82 -151 212t-60 249q0 189 95 340.5t263.5 237t378.5 85.5q211 0 380.5 -85.5t264.5 -237t95 -340.5q0 -118 -59 -247.5t-150 -213.5h321v-332h-733v307q106 75 175 202.5t69 246.5q0 153 -103 252.5t-260 99.5q-156 0 -258 -99.5t-102 -252.5 q0 -119 69 -247t174 -204v-305h-733z" />
<glyph unicode="&#x3c0;" horiz-adv-x="1497" d="M-39 791q-2 140 104.5 231.5t270.5 91.5h1134l3 -289h-236v-825h-340v825h-123l-86 -825h-340l84 825h-43q-48 0 -78.5 -29.5t-29.5 -74.5q0 -53 41 -133l-285 -96q-34 68 -55 149.5t-21 149.5z" />
<glyph unicode="&#x2000;" horiz-adv-x="983" />
<glyph unicode="&#x2001;" horiz-adv-x="1966" />
<glyph unicode="&#x2002;" horiz-adv-x="983" />
<glyph unicode="&#x2003;" horiz-adv-x="1966" />
<glyph unicode="&#x2004;" horiz-adv-x="655" />
<glyph unicode="&#x2005;" horiz-adv-x="491" />
<glyph unicode="&#x2006;" horiz-adv-x="327" />
<glyph unicode="&#x2007;" horiz-adv-x="327" />
<glyph unicode="&#x2008;" horiz-adv-x="245" />
<glyph unicode="&#x2009;" horiz-adv-x="393" />
<glyph unicode="&#x200a;" horiz-adv-x="109" />
<glyph unicode="&#x2010;" horiz-adv-x="772" d="M106 502v258h560v-258h-560z" />
<glyph unicode="&#x2011;" horiz-adv-x="772" d="M106 502v258h560v-258h-560z" />
<glyph unicode="&#x2012;" horiz-adv-x="772" d="M106 502v258h560v-258h-560z" />
<glyph unicode="&#x2013;" horiz-adv-x="837" d="M0 434v260h838v-260h-838z" />
<glyph unicode="&#x2014;" horiz-adv-x="1284" d="M0 434v260h1284v-260h-1284z" />
<glyph unicode="&#x2018;" horiz-adv-x="520" d="M45 1047q0 80 51 151l166 240h193l-99 -240q74 -56 74 -149q0 -85 -54.5 -139t-139.5 -54q-79 0 -135 51.5t-56 139.5z" />
<glyph unicode="&#x2019;" horiz-adv-x="520" d="M45 854l98 242q-73 52 -73 147q0 85 54.5 139t139.5 54q79 0 135 -51.5t56 -139.5q0 -76 -52 -151l-165 -240h-193z" />
<glyph unicode="&#x201a;" horiz-adv-x="520" d="M45 -213l100 242q-75 51 -75 147q0 85 54.5 139t139.5 54q79 0 135 -51.5t56 -139.5q0 -76 -52 -151l-165 -240h-193z" />
<glyph unicode="&#x201c;" horiz-adv-x="909" d="M45 1047q0 77 51 151l166 240h193l-101 -242q76 -52 76 -147q0 -85 -54.5 -139t-139.5 -54q-79 0 -135 51.5t-56 139.5zM461 1047q0 77 51 151l166 240h192l-100 -242q76 -52 76 -147q0 -85 -55 -139t-140 -54q-79 0 -134.5 51.5t-55.5 139.5z" />
<glyph unicode="&#x201d;" horiz-adv-x="925" d="M45 854l100 242q-75 51 -75 147q0 85 54.5 139t139.5 54q79 0 135 -51.5t56 -139.5q0 -76 -52 -151l-165 -240h-193zM463 854l100 242q-76 52 -76 147q0 85 55 139t140 54q79 0 134.5 -51.5t55.5 -139.5q0 -77 -51 -151l-166 -240h-192z" />
<glyph unicode="&#x201e;" horiz-adv-x="937" d="M45 -213l100 242q-75 51 -75 147q0 85 54.5 139t139.5 54q79 0 135 -51.5t56 -139.5q0 -76 -52 -151l-165 -240h-193zM463 -213l100 242q-76 52 -76 147q0 85 55 139t140 54q79 0 134.5 -51.5t55.5 -139.5q0 -77 -51 -151l-166 -240h-192z" />
<glyph unicode="&#x2020;" horiz-adv-x="1214" d="M39 694v328h356v410h412v-410h369v-328h-369v-1075h-412v1075h-356z" />
<glyph unicode="&#x2021;" horiz-adv-x="1214" d="M39 47v328h356v319h-356v328h356v410h412v-410h369v-328h-369v-319h369v-328h-369v-428h-412v428h-356z" />
<glyph unicode="&#x2022;" horiz-adv-x="716" d="M68 573q0 127 81 208t207 81q129 0 210 -80.5t81 -208.5q0 -129 -81 -209.5t-210 -80.5q-126 0 -207 80.5t-81 209.5z" />
<glyph unicode="&#x2026;" horiz-adv-x="1466" d="M68 176q0 83 53.5 137t136.5 54q86 0 139.5 -53.5t53.5 -137.5q0 -86 -53.5 -139t-139.5 -53q-84 0 -137 53t-53 139zM543 176q0 84 53 137.5t137 53.5t137.5 -53.5t53.5 -137.5q0 -86 -53 -139t-138 -53t-137.5 53t-52.5 139zM1016 176q0 84 53 137.5t137 53.5 t137.5 -53.5t53.5 -137.5q0 -86 -53 -139t-138 -53t-137.5 53t-52.5 139z" />
<glyph unicode="&#x202f;" horiz-adv-x="393" />
<glyph unicode="&#x2030;" horiz-adv-x="3082" d="M57 1008q0 199 111.5 316.5t300.5 117.5q188 0 299 -117.5t111 -316.5q0 -201 -111.5 -321t-298.5 -120q-189 0 -300.5 120t-111.5 321zM317 1008q0 -101 41 -160.5t111 -59.5q69 0 109 59.5t40 160.5q0 100 -40 158.5t-109 58.5q-70 0 -111 -58.5t-41 -158.5zM373 0 l1009 1436h385l-1007 -1436h-387zM1270 430q0 200 111 318t300 118q188 0 299 -118.5t111 -317.5q0 -201 -111 -319.5t-299 -118.5q-189 0 -300 118.5t-111 319.5zM1530 430q0 -101 40.5 -160t110.5 -59q69 0 109.5 59t40.5 160q0 100 -40.5 158.5t-109.5 58.5 q-70 0 -110.5 -58.5t-40.5 -158.5zM2204 430q0 200 111 318t300 118q188 0 299 -118.5t111 -317.5q0 -201 -111 -319.5t-299 -118.5q-189 0 -300 118.5t-111 319.5zM2464 430q0 -101 40.5 -160t110.5 -59q69 0 109.5 59t40.5 160q0 100 -40.5 158.5t-109.5 58.5 q-70 0 -110.5 -58.5t-40.5 -158.5z" />
<glyph unicode="&#x2039;" horiz-adv-x="579" d="M-18 553l251 387h332l-217 -387l217 -389h-332z" />
<glyph unicode="&#x203a;" horiz-adv-x="585" d="M29 164l219 387l-219 389h333l250 -389l-250 -387h-333z" />
<glyph unicode="&#x2044;" horiz-adv-x="276" d="M-561 0l1010 1436h385l-1008 -1436h-387z" />
<glyph unicode="&#x205f;" horiz-adv-x="491" />
<glyph unicode="&#x20ac;" horiz-adv-x="1591" d="M49 500v164h170q-2 18 -2 57t2 59h-170v162h201q71 228 271.5 367t469.5 139q162 0 324 -69t270 -185l-248 -291q-68 87 -160.5 139t-179.5 52q-88 0 -161.5 -40.5t-118.5 -111.5h434v-162h-492q-4 -36 -4 -55q0 -21 4 -61h492v-164h-430q47 -69 118.5 -107.5 t157.5 -38.5q83 0 175.5 45.5t164.5 120.5l248 -262q-117 -126 -282.5 -201t-327.5 -75q-264 0 -460.5 142.5t-266.5 375.5h-199z" />
<glyph unicode="&#x2122;" horiz-adv-x="1871" d="M-20 1198v238h731v-238h-217v-625h-297v625h-217zM784 573v863h324l182 -428l185 428h323v-863h-266v441l-139 -357h-203l-139 357v-441h-267z" />
<glyph unicode="&#x2202;" horiz-adv-x="1312" d="M47 481q0 211 131.5 341t349.5 130q103 0 179.5 -37.5t121.5 -101.5q3 152 -70 231.5t-216 79.5q-185 0 -312 -112l-161 299q97 65 232.5 104t266.5 39q304 0 485 -200.5t181 -534.5q0 -341 -170 -539t-467 -198q-249 0 -400 135.5t-151 363.5zM442 483q0 -79 44 -120 t128 -41q86 0 130 42.5t44 116.5q0 76 -46 118t-132 42q-82 0 -125 -40.5t-43 -117.5z" />
<glyph unicode="&#x220f;" horiz-adv-x="1509" d="M121 -397v1917h1270v-1917h-414v1593h-442v-1593h-414z" />
<glyph unicode="&#x2211;" horiz-adv-x="1267" d="M51 10l508 606l-483 609v301h1157v-357h-666l443 -553l-443 -542h686v-357h-1202v293z" />
<glyph unicode="&#x221a;" horiz-adv-x="1468" d="M-6 522v326h547l204 -764l369 1440h395l-546 -1850h-441l-266 848h-262z" />
<glyph unicode="&#x221e;" horiz-adv-x="1726" d="M39 608q0 198 121.5 326.5t306.5 128.5q71 0 131 -18.5t107.5 -54t82.5 -74.5t72 -93q49 73 97.5 121.5t127.5 83.5t175 35q186 0 307 -128t121 -325t-121 -325.5t-307 -128.5q-71 0 -131 18.5t-108 53.5t-83 74t-72 93q-36 -53 -71.5 -92.5t-83.5 -74.5t-109.5 -53.5 t-134.5 -18.5q-185 0 -306.5 128.5t-121.5 323.5zM317 608q0 -76 42.5 -126t107.5 -50q85 0 145 46t119 134q-58 84 -119 129t-145 45q-64 0 -107 -50.5t-43 -127.5zM995 606q58 -84 119.5 -129t145.5 -45q66 0 108.5 50.5t42.5 127.5t-42.5 126.5t-108.5 49.5 q-85 0 -147 -46.5t-118 -133.5z" />
<glyph unicode="&#x222b;" horiz-adv-x="849" d="M-51 -236l47 263q79 -39 139 -39q95 0 135.5 51t40.5 172q0 95 -28.5 511.5t-28.5 500.5q0 287 96.5 408.5t323.5 121.5q100 0 209 -49l-37 -262q-65 24 -121 24q-91 0 -129.5 -46.5t-38.5 -159.5q0 -79 27.5 -501.5t27.5 -518.5q0 -289 -97.5 -412t-326.5 -123 q-80 0 -135 13.5t-104 45.5z" />
<glyph unicode="&#x2248;" d="M104 236q0 195 61.5 290t188.5 95q46 0 90 -15t71.5 -33.5t55.5 -33.5t47 -15q60 0 60 88h274q0 -195 -60.5 -290t-186.5 -95q-61 0 -115 24.5t-92 48.5t-60 24q-57 0 -57 -88h-277zM104 719q0 195 61.5 289t188.5 94q46 0 90 -15t71.5 -33t55.5 -33t47 -15q60 0 60 88 h274q0 -195 -60.5 -289t-186.5 -94q-48 0 -92.5 15t-72 33t-55.5 33t-47 15q-57 0 -57 -88h-277z" />
<glyph unicode="&#x2260;" d="M63 319v259h271l59 188h-330v258h412l86 274h311l-86 -274h205v-258h-286l-60 -188h346v-259h-428l-90 -284h-309l90 284h-191z" />
<glyph unicode="&#x2264;" d="M63 -16v260h928v-260h-928zM63 668v313l928 362v-274l-661 -244l661 -245v-275z" />
<glyph unicode="&#x2265;" d="M63 -16v260h928v-260h-928zM63 322v276l662 244l-662 243v277l928 -363v-315z" />
<glyph unicode="&#x25ca;" horiz-adv-x="1009" d="M39 676l467 692l465 -692l-467 -699zM315 676l189 -283l190 283l-188 280z" />
<glyph unicode="&#x25fc;" horiz-adv-x="1116" d="M0 0v1116h1116v-1116h-1116z" />
<hkern u1="&#x27;" u2="&#x2e;" k="96" />
<hkern u1="&#x28;" u2="&#x39;" k="37" />
<hkern u1="&#x2f;" u2="&#x39;" k="43" />
<hkern u1="&#x37;" u2="&#x2e;" k="84" />
<hkern u1="D" u2="Y" k="2" />
<hkern u1="J" u2="J" k="14" />
<hkern u1="J" u2="&#x2e;" k="20" />
<hkern u1="K" u2="&#x152;" k="39" />
<hkern u1="K" u2="&#x106;" k="39" />
<hkern u1="K" u2="&#xd8;" k="39" />
<hkern u1="K" u2="&#xd6;" k="39" />
<hkern u1="K" u2="&#xd5;" k="39" />
<hkern u1="K" u2="&#xd4;" k="39" />
<hkern u1="K" u2="&#xd3;" k="39" />
<hkern u1="K" u2="&#xd2;" k="39" />
<hkern u1="K" u2="&#xc7;" k="39" />
<hkern u1="K" u2="Q" k="39" />
<hkern u1="K" u2="O" k="39" />
<hkern u1="K" u2="G" k="39" />
<hkern u1="K" u2="C" k="39" />
<hkern u1="O" u2="Y" k="2" />
<hkern u1="Q" u2="Y" k="2" />
<hkern u1="U" u2="J" k="14" />
<hkern u1="V" u2="O" k="2" />
<hkern u1="V" u2="J" k="8" />
<hkern u1="W" u2="O" k="2" />
<hkern u1="W" u2="J" k="8" />
<hkern u1="W" u2="&#x26;" k="6" />
<hkern u1="Y" u2="&#x152;" k="12" />
<hkern u1="Y" u2="&#x106;" k="12" />
<hkern u1="Y" u2="&#xd8;" k="12" />
<hkern u1="Y" u2="&#xd6;" k="12" />
<hkern u1="Y" u2="&#xd5;" k="12" />
<hkern u1="Y" u2="&#xd4;" k="12" />
<hkern u1="Y" u2="&#xd3;" k="12" />
<hkern u1="Y" u2="&#xd2;" k="12" />
<hkern u1="Y" u2="&#xc7;" k="12" />
<hkern u1="Y" u2="Q" k="12" />
<hkern u1="Y" u2="O" k="12" />
<hkern u1="Y" u2="J" k="12" />
<hkern u1="Y" u2="G" k="12" />
<hkern u1="Y" u2="C" k="12" />
<hkern u1="Y" u2="&#x26;" k="96" />
<hkern u1="[" u2="&#x39;" k="33" />
<hkern u1="a" u2="&#x7d;" k="14" />
<hkern u1="a" u2="\" k="14" />
<hkern u1="a" u2="J" k="14" />
<hkern u1="b" u2="J" k="29" />
<hkern u1="e" u2="&#x7d;" k="18" />
<hkern u1="e" u2="\" k="18" />
<hkern u1="e" u2="J" k="29" />
<hkern u1="h" u2="J" k="14" />
<hkern u1="m" u2="J" k="14" />
<hkern u1="n" u2="J" k="14" />
<hkern u1="o" u2="J" k="29" />
<hkern u1="p" u2="J" k="29" />
<hkern u1="v" u2="J" k="41" />
<hkern u1="w" u2="J" k="41" />
<hkern u1="y" u2="J" k="2" />
<hkern u1="y" u2="&#x2e;" k="4" />
<hkern u1="&#xd0;" u2="Y" k="2" />
<hkern u1="&#xd2;" u2="Y" k="2" />
<hkern u1="&#xd3;" u2="Y" k="2" />
<hkern u1="&#xd4;" u2="Y" k="2" />
<hkern u1="&#xd5;" u2="Y" k="2" />
<hkern u1="&#xd6;" u2="Y" k="2" />
<hkern u1="&#xd8;" u2="Y" k="2" />
<hkern u1="&#xd9;" u2="J" k="14" />
<hkern u1="&#xda;" u2="J" k="14" />
<hkern u1="&#xdb;" u2="J" k="14" />
<hkern u1="&#xdc;" u2="J" k="14" />
<hkern u1="&#xdd;" u2="O" k="2" />
<hkern u1="&#xdd;" u2="J" k="8" />
<hkern u1="&#xde;" u2="Y" k="12" />
<hkern u1="&#xe0;" u2="J" k="14" />
<hkern u1="&#xe1;" u2="J" k="14" />
<hkern u1="&#xe2;" u2="J" k="14" />
<hkern u1="&#xe3;" u2="J" k="14" />
<hkern u1="&#xe4;" u2="J" k="14" />
<hkern u1="&#xe5;" u2="J" k="14" />
<hkern u1="&#xe8;" u2="J" k="29" />
<hkern u1="&#xe9;" u2="J" k="29" />
<hkern u1="&#xea;" u2="J" k="29" />
<hkern u1="&#xeb;" u2="J" k="29" />
<hkern u1="&#xf0;" u2="Y" k="2" />
<hkern u1="&#xf1;" u2="J" k="14" />
<hkern u1="&#xf2;" u2="J" k="29" />
<hkern u1="&#xf3;" u2="J" k="29" />
<hkern u1="&#xf4;" u2="J" k="29" />
<hkern u1="&#xf5;" u2="J" k="29" />
<hkern u1="&#xf6;" u2="J" k="29" />
<hkern u1="&#xf8;" u2="J" k="29" />
<hkern u1="&#xfd;" u2="J" k="41" />
<hkern u1="&#xfe;" u2="J" k="29" />
<hkern u1="&#xff;" u2="J" k="41" />
<hkern u1="&#x105;" u2="J" k="14" />
<hkern u1="&#x144;" u2="J" k="14" />
<hkern u1="&#x178;" u2="O" k="2" />
<hkern u1="&#x178;" u2="J" k="8" />
<hkern u1="&#x2018;" u2="&#x2e;" k="125" />
<hkern u1="&#x2019;" u2="&#x2e;" k="125" />
<hkern u1="&#x2019;" u2="&#x26;" k="43" />
<hkern g1="s,sacute" 	g2="T" 	k="10" />
<hkern g1="s,sacute" 	g2="v,w,y,yacute,ydieresis" 	k="18" />
<hkern g1="s,sacute" 	g2="V,W,Y,Yacute,Ydieresis" 	k="57" />
<hkern g1="s,sacute" 	g2="x" 	k="37" />
<hkern g1="C,Ccedilla,Cacute" 	g2="A,Agrave,Aacute,Acircumflex,Atilde,Adieresis,Aring,AE,Aogonek" 	k="18" />
<hkern g1="C,Ccedilla,Cacute" 	g2="C,G,O,Q,Ccedilla,Ograve,Oacute,Ocircumflex,Otilde,Odieresis,Oslash,Cacute,OE" 	k="23" />
<hkern g1="C,Ccedilla,Cacute" 	g2="c,d,e,g,o,q,ccedilla,egrave,eacute,ecircumflex,edieresis,eth,ograve,oacute,ocircumflex,otilde,odieresis,oslash,cacute,eogonek,oe" 	k="23" />
<hkern g1="C,Ccedilla,Cacute" 	g2="a,agrave,aacute,acircumflex,atilde,adieresis,aring,ae,aogonek" 	k="16" />
<hkern g1="d,l,uniFB02" 	g2="J" 	k="18" />
<hkern g1="R" 	g2="backslash" 	k="12" />
<hkern g1="R" 	g2="J" 	k="16" />
<hkern g1="R" 	g2="V,W,Y,Yacute,Ydieresis" 	k="12" />
<hkern g1="V,W,Y,Yacute,Ydieresis" 	g2="v,w,y,yacute,ydieresis" 	k="18" />
<hkern g1="V,W,Y,Yacute,Ydieresis" 	g2="z,zacute,zdotaccent" 	k="57" />
<hkern g1="V,W,Y,Yacute,Ydieresis" 	g2="J" 	k="27" />
<hkern g1="V,W,Y,Yacute,Ydieresis" 	g2="A,Agrave,Aacute,Acircumflex,Atilde,Adieresis,Aring,AE,Aogonek" 	k="117" />
<hkern g1="V,W,Y,Yacute,Ydieresis" 	g2="x" 	k="57" />
<hkern g1="V,W,Y,Yacute,Ydieresis" 	g2="C,G,O,Q,Ccedilla,Ograve,Oacute,Ocircumflex,Otilde,Odieresis,Oslash,Cacute,OE" 	k="23" />
<hkern g1="V,W,Y,Yacute,Ydieresis" 	g2="c,d,e,g,o,q,ccedilla,egrave,eacute,ecircumflex,edieresis,eth,ograve,oacute,ocircumflex,otilde,odieresis,oslash,cacute,eogonek,oe" 	k="135" />
<hkern g1="V,W,Y,Yacute,Ydieresis" 	g2="a,agrave,aacute,acircumflex,atilde,adieresis,aring,ae,aogonek" 	k="133" />
<hkern g1="V,W,Y,Yacute,Ydieresis" 	g2="s,sacute" 	k="57" />
<hkern g1="V,W,Y,Yacute,Ydieresis" 	g2="period" 	k="92" />
<hkern g1="V,W,Y,Yacute,Ydieresis" 	g2="i" 	k="2" />
<hkern g1="V,W,Y,Yacute,Ydieresis" 	g2="m,n,r,ntilde,nacute" 	k="59" />
<hkern g1="V,W,Y,Yacute,Ydieresis" 	g2="igrave,iacute,icircumflex,idieresis,dotlessi" 	k="2" />
<hkern g1="V,W,Y,Yacute,Ydieresis" 	g2="ampersand" 	k="96" />
<hkern g1="V,W,Y,Yacute,Ydieresis" 	g2="t,u,ugrave,uacute,ucircumflex,udieresis" 	k="59" />
<hkern g1="V,W,Y,Yacute,Ydieresis" 	g2="p,uni00B5" 	k="6" />
<hkern g1="t" 	g2="A,Agrave,Aacute,Acircumflex,Atilde,Adieresis,Aring,AE,Aogonek" 	k="-2" />
<hkern g1="t" 	g2="V,W,Y,Yacute,Ydieresis" 	k="59" />
<hkern g1="t" 	g2="c,d,e,g,o,q,ccedilla,egrave,eacute,ecircumflex,edieresis,eth,ograve,oacute,ocircumflex,otilde,odieresis,oslash,cacute,eogonek,oe" 	k="2" />
<hkern g1="u,igrave,iacute,icircumflex,idieresis,ugrave,uacute,ucircumflex,udieresis,dotlessi" 	g2="T" 	k="16" />
<hkern g1="u,igrave,iacute,icircumflex,idieresis,ugrave,uacute,ucircumflex,udieresis,dotlessi" 	g2="J" 	k="16" />
<hkern g1="u,igrave,iacute,icircumflex,idieresis,ugrave,uacute,ucircumflex,udieresis,dotlessi" 	g2="V,W,Y,Yacute,Ydieresis" 	k="2" />
<hkern g1="u,igrave,iacute,icircumflex,idieresis,ugrave,uacute,ucircumflex,udieresis,dotlessi" 	g2="C,G,O,Q,Ccedilla,Ograve,Oacute,Ocircumflex,Otilde,Odieresis,Oslash,Cacute,OE" 	k="12" />
<hkern g1="D,O,Q,Eth,Ograve,Oacute,Ocircumflex,Otilde,Odieresis,Oslash,eth" 	g2="T" 	k="55" />
<hkern g1="D,O,Q,Eth,Ograve,Oacute,Ocircumflex,Otilde,Odieresis,Oslash,eth" 	g2="v,w,y,yacute,ydieresis" 	k="2" />
<hkern g1="D,O,Q,Eth,Ograve,Oacute,Ocircumflex,Otilde,Odieresis,Oslash,eth" 	g2="J" 	k="43" />
<hkern g1="D,O,Q,Eth,Ograve,Oacute,Ocircumflex,Otilde,Odieresis,Oslash,eth" 	g2="A,Agrave,Aacute,Acircumflex,Atilde,Adieresis,Aring,AE,Aogonek" 	k="41" />
<hkern g1="D,O,Q,Eth,Ograve,Oacute,Ocircumflex,Otilde,Odieresis,Oslash,eth" 	g2="V,W,Y,Yacute,Ydieresis" 	k="20" />
<hkern g1="D,O,Q,Eth,Ograve,Oacute,Ocircumflex,Otilde,Odieresis,Oslash,eth" 	g2="x" 	k="20" />
<hkern g1="D,O,Q,Eth,Ograve,Oacute,Ocircumflex,Otilde,Odieresis,Oslash,eth" 	g2="C,G,O,Q,Ccedilla,Ograve,Oacute,Ocircumflex,Otilde,Odieresis,Oslash,Cacute,OE" 	k="12" />
<hkern g1="D,O,Q,Eth,Ograve,Oacute,Ocircumflex,Otilde,Odieresis,Oslash,eth" 	g2="period" 	k="47" />
<hkern g1="k,x" 	g2="v,w,y,yacute,ydieresis" 	k="2" />
<hkern g1="k,x" 	g2="V,W,Y,Yacute,Ydieresis" 	k="57" />
<hkern g1="k,x" 	g2="C,G,O,Q,Ccedilla,Ograve,Oacute,Ocircumflex,Otilde,Odieresis,Oslash,Cacute,OE" 	k="20" />
<hkern g1="k,x" 	g2="c,d,e,g,o,q,ccedilla,egrave,eacute,ecircumflex,edieresis,eth,ograve,oacute,ocircumflex,otilde,odieresis,oslash,cacute,eogonek,oe" 	k="59" />
<hkern g1="k,x" 	g2="a,agrave,aacute,acircumflex,atilde,adieresis,aring,ae,aogonek" 	k="43" />
<hkern g1="k,x" 	g2="s,sacute" 	k="37" />
<hkern g1="k,x" 	g2="U,Ugrave,Uacute,Ucircumflex,Udieresis" 	k="41" />
<hkern g1="S,Sacute" 	g2="A,Agrave,Aacute,Acircumflex,Atilde,Adieresis,Aring,AE,Aogonek" 	k="2" />
<hkern g1="q" 	g2="T" 	k="16" />
<hkern g1="q" 	g2="V,W,Y,Yacute,Ydieresis" 	k="6" />
<hkern g1="i,uni00B5,uniFB01" 	g2="T" 	k="16" />
<hkern g1="i,uni00B5,uniFB01" 	g2="J" 	k="2" />
<hkern g1="i,uni00B5,uniFB01" 	g2="V,W,Y,Yacute,Ydieresis" 	k="2" />
<hkern g1="f" 	g2="f,germandbls,uniFB01,uniFB02" 	k="-2" />
<hkern g1="f" 	g2="T" 	k="-186" />
<hkern g1="f" 	g2="v,w,y,yacute,ydieresis" 	k="-61" />
<hkern g1="f" 	g2="J" 	k="10" />
<hkern g1="f" 	g2="A,Agrave,Aacute,Acircumflex,Atilde,Adieresis,Aring,AE,Aogonek" 	k="37" />
<hkern g1="f" 	g2="V,W,Y,Yacute,Ydieresis" 	k="-145" />
<hkern g1="f" 	g2="C,G,O,Q,Ccedilla,Ograve,Oacute,Ocircumflex,Otilde,Odieresis,Oslash,Cacute,OE" 	k="-59" />
<hkern g1="f" 	g2="c,d,e,g,o,q,ccedilla,egrave,eacute,ecircumflex,edieresis,eth,ograve,oacute,ocircumflex,otilde,odieresis,oslash,cacute,eogonek,oe" 	k="20" />
<hkern g1="f" 	g2="a,agrave,aacute,acircumflex,atilde,adieresis,aring,ae,aogonek" 	k="45" />
<hkern g1="f" 	g2="period" 	k="-4" />
<hkern g1="f" 	g2="t,u,ugrave,uacute,ucircumflex,udieresis" 	k="-37" />
<hkern g1="f" 	g2="U,Ugrave,Uacute,Ucircumflex,Udieresis" 	k="-4" />
<hkern g1="f" 	g2="b,h,k,l,thorn" 	k="-55" />
<hkern g1="f" 	g2="B,D,E,F,H,I,K,L,M,N,P,R,Egrave,Eacute,Ecircumflex,Edieresis,Igrave,Iacute,Icircumflex,Idieresis,Eth,Ntilde,Thorn,Eogonek,Lslash,Nacute" 	k="-78" />
<hkern g1="L,Lslash" 	g2="backslash" 	k="98" />
<hkern g1="L,Lslash" 	g2="A,Agrave,Aacute,Acircumflex,Atilde,Adieresis,Aring,AE,Aogonek" 	k="-2" />
<hkern g1="A,Agrave,Aacute,Acircumflex,Atilde,Adieresis,Aring,Aogonek" 	g2="backslash" 	k="63" />
<hkern g1="A,Agrave,Aacute,Acircumflex,Atilde,Adieresis,Aring,Aogonek" 	g2="T" 	k="158" />
<hkern g1="A,Agrave,Aacute,Acircumflex,Atilde,Adieresis,Aring,Aogonek" 	g2="v,w,y,yacute,ydieresis" 	k="76" />
<hkern g1="A,Agrave,Aacute,Acircumflex,Atilde,Adieresis,Aring,Aogonek" 	g2="V,W,Y,Yacute,Ydieresis" 	k="117" />
<hkern g1="A,Agrave,Aacute,Acircumflex,Atilde,Adieresis,Aring,Aogonek" 	g2="C,G,O,Q,Ccedilla,Ograve,Oacute,Ocircumflex,Otilde,Odieresis,Oslash,Cacute,OE" 	k="41" />
<hkern g1="A,Agrave,Aacute,Acircumflex,Atilde,Adieresis,Aring,Aogonek" 	g2="c,d,e,g,o,q,ccedilla,egrave,eacute,ecircumflex,edieresis,eth,ograve,oacute,ocircumflex,otilde,odieresis,oslash,cacute,eogonek,oe" 	k="43" />
<hkern g1="A,Agrave,Aacute,Acircumflex,Atilde,Adieresis,Aring,Aogonek" 	g2="t,u,ugrave,uacute,ucircumflex,udieresis" 	k="43" />
<hkern g1="A,Agrave,Aacute,Acircumflex,Atilde,Adieresis,Aring,Aogonek" 	g2="U,Ugrave,Uacute,Ucircumflex,Udieresis" 	k="41" />
<hkern g1="A,Agrave,Aacute,Acircumflex,Atilde,Adieresis,Aring,Aogonek" 	g2="S,Sacute" 	k="2" />
<hkern g1="P" 	g2="J" 	k="59" />
<hkern g1="P" 	g2="A,Agrave,Aacute,Acircumflex,Atilde,Adieresis,Aring,AE,Aogonek" 	k="115" />
<hkern g1="P" 	g2="period" 	k="102" />
<hkern g1="g,j" 	g2="T" 	k="14" />
<hkern g1="g,j" 	g2="V,W,Y,Yacute,Ydieresis" 	k="18" />
<hkern g1="Thorn" 	g2="J" 	k="53" />
<hkern g1="Thorn" 	g2="V,W,Y,Yacute,Ydieresis" 	k="14" />
<hkern g1="Thorn" 	g2="period" 	k="51" />
<hkern g1="T" 	g2="v,w,y,yacute,ydieresis" 	k="16" />
<hkern g1="T" 	g2="z,zacute,zdotaccent" 	k="14" />
<hkern g1="T" 	g2="J" 	k="31" />
<hkern g1="T" 	g2="A,Agrave,Aacute,Acircumflex,Atilde,Adieresis,Aring,AE,Aogonek" 	k="158" />
<hkern g1="T" 	g2="C,G,O,Q,Ccedilla,Ograve,Oacute,Ocircumflex,Otilde,Odieresis,Oslash,Cacute,OE" 	k="68" />
<hkern g1="T" 	g2="c,d,e,g,o,q,ccedilla,egrave,eacute,ecircumflex,edieresis,eth,ograve,oacute,ocircumflex,otilde,odieresis,oslash,cacute,eogonek,oe" 	k="127" />
<hkern g1="T" 	g2="a,agrave,aacute,acircumflex,atilde,adieresis,aring,ae,aogonek" 	k="96" />
<hkern g1="T" 	g2="s,sacute" 	k="6" />
<hkern g1="T" 	g2="period" 	k="113" />
<hkern g1="T" 	g2="m,n,r,ntilde,nacute" 	k="16" />
<hkern g1="T" 	g2="ampersand" 	k="129" />
<hkern g1="T" 	g2="t,u,ugrave,uacute,ucircumflex,udieresis" 	k="16" />
<hkern g1="T" 	g2="b,h,k,l,thorn" 	k="78" />
<hkern g1="a,h,m,n,agrave,aacute,acircumflex,atilde,adieresis,aring,ntilde,aogonek,nacute" 	g2="backslash" 	k="18" />
<hkern g1="a,h,m,n,agrave,aacute,acircumflex,atilde,adieresis,aring,ntilde,aogonek,nacute" 	g2="T" 	k="16" />
<hkern g1="a,h,m,n,agrave,aacute,acircumflex,atilde,adieresis,aring,ntilde,aogonek,nacute" 	g2="v,w,y,yacute,ydieresis" 	k="6" />
<hkern g1="a,h,m,n,agrave,aacute,acircumflex,atilde,adieresis,aring,ntilde,aogonek,nacute" 	g2="z,zacute,zdotaccent" 	k="4" />
<hkern g1="a,h,m,n,agrave,aacute,acircumflex,atilde,adieresis,aring,ntilde,aogonek,nacute" 	g2="J" 	k="16" />
<hkern g1="a,h,m,n,agrave,aacute,acircumflex,atilde,adieresis,aring,ntilde,aogonek,nacute" 	g2="braceright" 	k="2" />
<hkern g1="a,h,m,n,agrave,aacute,acircumflex,atilde,adieresis,aring,ntilde,aogonek,nacute" 	g2="V,W,Y,Yacute,Ydieresis" 	k="98" />
<hkern g1="a,h,m,n,agrave,aacute,acircumflex,atilde,adieresis,aring,ntilde,aogonek,nacute" 	g2="C,G,O,Q,Ccedilla,Ograve,Oacute,Ocircumflex,Otilde,Odieresis,Oslash,Cacute,OE" 	k="12" />
<hkern g1="c,ccedilla,cacute" 	g2="V,W,Y,Yacute,Ydieresis" 	k="74" />
<hkern g1="c,ccedilla,cacute" 	g2="C,G,O,Q,Ccedilla,Ograve,Oacute,Ocircumflex,Otilde,Odieresis,Oslash,Cacute,OE" 	k="16" />
<hkern g1="c,ccedilla,cacute" 	g2="c,d,e,g,o,q,ccedilla,egrave,eacute,ecircumflex,edieresis,eth,ograve,oacute,ocircumflex,otilde,odieresis,oslash,cacute,eogonek,oe" 	k="25" />
<hkern g1="c,ccedilla,cacute" 	g2="a,agrave,aacute,acircumflex,atilde,adieresis,aring,ae,aogonek" 	k="10" />
<hkern g1="K,X" 	g2="C,G,O,Q,Ccedilla,Ograve,Oacute,Ocircumflex,Otilde,Odieresis,Oslash,Cacute,OE" 	k="12" />
<hkern g1="r" 	g2="v,w,y,yacute,ydieresis" 	k="-43" />
<hkern g1="r" 	g2="A,Agrave,Aacute,Acircumflex,Atilde,Adieresis,Aring,AE,Aogonek" 	k="4" />
<hkern g1="r" 	g2="V,W,Y,Yacute,Ydieresis" 	k="55" />
<hkern g1="r" 	g2="a,agrave,aacute,acircumflex,atilde,adieresis,aring,ae,aogonek" 	k="25" />
<hkern g1="v,w,y,yacute,ydieresis" 	g2="T" 	k="16" />
<hkern g1="v,w,y,yacute,ydieresis" 	g2="J" 	k="35" />
<hkern g1="v,w,y,yacute,ydieresis" 	g2="A,Agrave,Aacute,Acircumflex,Atilde,Adieresis,Aring,AE,Aogonek" 	k="76" />
<hkern g1="v,w,y,yacute,ydieresis" 	g2="V,W,Y,Yacute,Ydieresis" 	k="18" />
<hkern g1="v,w,y,yacute,ydieresis" 	g2="x" 	k="2" />
<hkern g1="v,w,y,yacute,ydieresis" 	g2="C,G,O,Q,Ccedilla,Ograve,Oacute,Ocircumflex,Otilde,Odieresis,Oslash,Cacute,OE" 	k="2" />
<hkern g1="v,w,y,yacute,ydieresis" 	g2="c,d,e,g,o,q,ccedilla,egrave,eacute,ecircumflex,edieresis,eth,ograve,oacute,ocircumflex,otilde,odieresis,oslash,cacute,eogonek,oe" 	k="33" />
<hkern g1="v,w,y,yacute,ydieresis" 	g2="a,agrave,aacute,acircumflex,atilde,adieresis,aring,ae,aogonek" 	k="31" />
<hkern g1="v,w,y,yacute,ydieresis" 	g2="s,sacute" 	k="18" />
<hkern g1="v,w,y,yacute,ydieresis" 	g2="period" 	k="70" />
<hkern g1="v,w,y,yacute,ydieresis" 	g2="m,n,r,ntilde,nacute" 	k="-2" />
<hkern g1="B,germandbls" 	g2="backslash" 	k="18" />
<hkern g1="B,germandbls" 	g2="J" 	k="18" />
<hkern g1="z,zacute,zdotaccent" 	g2="V,W,Y,Yacute,Ydieresis" 	k="57" />
<hkern g1="z,zacute,zdotaccent" 	g2="c,d,e,g,o,q,ccedilla,egrave,eacute,ecircumflex,edieresis,eth,ograve,oacute,ocircumflex,otilde,odieresis,oslash,cacute,eogonek,oe" 	k="2" />
<hkern g1="z,zacute,zdotaccent" 	g2="a,agrave,aacute,acircumflex,atilde,adieresis,aring,ae,aogonek" 	k="4" />
<hkern g1="z,zacute,zdotaccent" 	g2="m,n,r,ntilde,nacute" 	k="4" />
<hkern g1="F" 	g2="J" 	k="39" />
<hkern g1="F" 	g2="A,Agrave,Aacute,Acircumflex,Atilde,Adieresis,Aring,AE,Aogonek" 	k="78" />
<hkern g1="F" 	g2="period" 	k="94" />
<hkern g1="J,U,Ugrave,Uacute,Ucircumflex,Udieresis" 	g2="J" 	k="27" />
<hkern g1="J,U,Ugrave,Uacute,Ucircumflex,Udieresis" 	g2="A,Agrave,Aacute,Acircumflex,Atilde,Adieresis,Aring,AE,Aogonek" 	k="41" />
<hkern g1="J,U,Ugrave,Uacute,Ucircumflex,Udieresis" 	g2="x" 	k="41" />
<hkern g1="J,U,Ugrave,Uacute,Ucircumflex,Udieresis" 	g2="period" 	k="41" />
<hkern g1="asterisk" 	g2="J" 	k="35" />
<hkern g1="quotesingle" 	g2="J" 	k="35" />
<hkern g1="quoteright" 	g2="J" 	k="25" />
<hkern g1="trademark" 	g2="J" 	k="4" />
<hkern g1="slash" 	g2="J" 	k="25" />
<hkern g1="slash" 	g2="C,G,O,Q,Ccedilla,Ograve,Oacute,Ocircumflex,Otilde,Odieresis,Oslash,Cacute,OE" 	k="35" />
<hkern g1="slash" 	g2="a,agrave,aacute,acircumflex,atilde,adieresis,aring,ae,aogonek" 	k="23" />
<hkern g1="bracketleft" 	g2="C,G,O,Q,Ccedilla,Ograve,Oacute,Ocircumflex,Otilde,Odieresis,Oslash,Cacute,OE" 	k="18" />
<hkern g1="quoteleft" 	g2="J" 	k="25" />
<hkern g1="parenleft" 	g2="C,G,O,Q,Ccedilla,Ograve,Oacute,Ocircumflex,Otilde,Odieresis,Oslash,Cacute,OE" 	k="20" />
<hkern g1="parenleft" 	g2="a,agrave,aacute,acircumflex,atilde,adieresis,aring,ae,aogonek" 	k="20" />
<hkern g1="guilsinglright" 	g2="J" 	k="23" />
</font>
</defs></svg> 