<?xml version="1.0" encoding="utf-8"?>
<!-- Generator: Adobe Illustrator 16.0.0, SVG Export Plug-In . SVG Version: 6.00 Build 0)  -->
<!DOCTYPE svg PUBLIC "-//W3C//DTD SVG 1.1//EN" "http://www.w3.org/Graphics/SVG/1.1/DTD/svg11.dtd">
<svg version="1.1" id="Capa_1" xmlns="http://www.w3.org/2000/svg" xmlns:xlink="http://www.w3.org/1999/xlink" x="0px" y="0px"
	 width="39.995px" height="39.995px" viewBox="0 0 39.995 39.995" enable-background="new 0 0 39.995 39.995" xml:space="preserve">
<path fill="#717171" d="M17.347,22.591c0,0.848-0.301,1.42-0.907,1.721c-0.332,0.162-0.798,0.242-1.397,0.242h-3.349v-3.678h3.396
	c0.591,0.004,1.051,0.084,1.379,0.232C17.056,21.378,17.347,21.872,17.347,22.591z M26.199,18.677c-0.683,0-1.215,0.195-1.592,0.582
	c-0.377,0.389-0.614,0.916-0.711,1.58h4.597c-0.049-0.709-0.287-1.244-0.71-1.613C27.354,18.86,26.828,18.677,26.199,18.677z
	 M16.507,18.251c0.372-0.229,0.56-0.633,0.56-1.211c0-0.645-0.248-1.068-0.741-1.275c-0.427-0.143-0.97-0.215-1.63-0.215h-3.002
	v3.043h3.354C15.645,18.593,16.132,18.479,16.507,18.251z M39.995,0v39.994H0V0H39.995z M23.206,15.513h5.911v-1.717h-5.911V15.513z
	 M20.257,22.786c0-0.793-0.18-1.469-0.537-2.021c-0.36-0.555-0.891-0.961-1.594-1.219c0.464-0.236,0.814-0.498,1.054-0.785
	c0.425-0.512,0.637-1.189,0.637-2.031c0-0.816-0.211-1.518-0.632-2.105c-0.702-0.955-1.893-1.445-3.576-1.471H8.943v13.795h6.216
	c0.701,0,1.35-0.059,1.949-0.186c0.6-0.125,1.118-0.354,1.557-0.693c0.391-0.291,0.716-0.654,0.977-1.084
	C20.054,24.337,20.257,23.603,20.257,22.786z M31.172,20.573c-0.123-0.799-0.393-1.504-0.815-2.107
	c-0.461-0.689-1.048-1.193-1.761-1.51c-0.711-0.32-1.511-0.48-2.399-0.48c-1.494,0-2.709,0.473-3.647,1.416
	c-0.936,0.943-1.403,2.299-1.403,4.066c0,1.885,0.517,3.246,1.557,4.084c1.036,0.838,2.234,1.254,3.592,1.254
	c1.645,0,2.923-0.496,3.837-1.486c0.585-0.625,0.916-1.24,0.988-1.846h-2.723c-0.158,0.301-0.341,0.535-0.55,0.703
	c-0.379,0.311-0.874,0.467-1.479,0.467c-0.574,0-1.063-0.127-1.471-0.385c-0.671-0.408-1.024-1.127-1.068-2.15h7.431
	C31.274,21.718,31.244,21.042,31.172,20.573z"/>
</svg>
