<?xml version="1.0" encoding="utf-8"?>
<!-- Generator: Adobe Illustrator 16.0.0, SVG Export Plug-In . SVG Version: 6.00 Build 0)  -->
<!DOCTYPE svg PUBLIC "-//W3C//DTD SVG 1.1//EN" "http://www.w3.org/Graphics/SVG/1.1/DTD/svg11.dtd">
<svg version="1.1" id="Capa_1" xmlns="http://www.w3.org/2000/svg" xmlns:xlink="http://www.w3.org/1999/xlink" x="0px" y="0px"
	 width="39.995px" height="39.995px" viewBox="0 0 39.995 39.995" enable-background="new 0 0 39.995 39.995" xml:space="preserve">
<path fill-rule="evenodd" clip-rule="evenodd" fill="#717171" d="M11.498,18.208c0.564-2.691,2.372-4.922,4.794-6.066
	c0.116,0.155,1.722,2.332,3.226,5.006C15.347,18.256,11.727,18.212,11.498,18.208z M20.599,20.065
	c0.113-0.037,0.227-0.071,0.342-0.104c-0.217-0.494-0.456-0.989-0.705-1.477c-4.472,1.339-8.764,1.242-8.917,1.238
	c-0.002,0.091-0.007,0.181-0.007,0.274c0,2.232,0.842,4.267,2.225,5.806c0-0.001-0.003-0.005-0.003-0.005
	S15.912,21.582,20.599,20.065z M14.66,26.847l0.001-0.003c-0.065-0.05-0.133-0.097-0.196-0.148
	C14.58,26.787,14.66,26.847,14.66,26.847z M17.917,11.563c-0.009,0.003-0.019,0.004-0.028,0.008
	c0.017-0.004,0.026-0.006,0.026-0.006S17.917,11.564,17.917,11.563z M39.995,0v39.995H0V0H39.995z M30.168,19.998
	c0-0.689-0.069-1.379-0.207-2.048c-0.133-0.653-0.334-1.297-0.593-1.911c-0.255-0.604-0.571-1.185-0.938-1.729
	c-0.363-0.539-0.781-1.045-1.241-1.505s-0.966-0.878-1.505-1.241c-0.543-0.368-1.125-0.684-1.727-0.939
	c-0.614-0.258-1.258-0.46-1.912-0.592c-0.67-0.138-1.359-0.208-2.047-0.208c-0.689,0-1.379,0.07-2.049,0.208
	c-0.653,0.132-1.296,0.334-1.911,0.592c-0.603,0.256-1.184,0.571-1.728,0.939c-0.538,0.363-1.044,0.781-1.505,1.241
	c-0.459,0.46-0.876,0.966-1.24,1.505c-0.367,0.544-0.683,1.124-0.938,1.729c-0.26,0.614-0.459,1.258-0.593,1.911
	c-0.137,0.669-0.207,1.358-0.207,2.048c0,0.69,0.069,1.381,0.207,2.05c0.134,0.653,0.333,1.296,0.593,1.911
	c0.255,0.603,0.571,1.186,0.938,1.729c0.364,0.538,0.781,1.044,1.24,1.504c0.46,0.46,0.967,0.877,1.505,1.241
	c0.544,0.367,1.125,0.684,1.728,0.938c0.614,0.26,1.258,0.459,1.911,0.592c0.67,0.139,1.36,0.208,2.049,0.208
	c0.688,0,1.377-0.069,2.047-0.208c0.654-0.133,1.297-0.332,1.912-0.592c0.603-0.255,1.184-0.571,1.727-0.938
	c0.539-0.364,1.045-0.781,1.505-1.241s0.878-0.966,1.241-1.504c0.367-0.543,0.683-1.126,0.938-1.729
	c0.259-0.615,0.46-1.258,0.593-1.911C30.099,21.379,30.168,20.688,30.168,19.998z M21.866,17.919
	c0.202,0.414,0.396,0.835,0.578,1.261c0.064,0.149,0.126,0.299,0.188,0.447c2.984-0.375,5.924,0.257,6.049,0.285
	c-0.021-2.062-0.757-3.951-1.976-5.433C26.689,14.504,25.296,16.518,21.866,17.919z M25.734,13.479
	c-1.53-1.348-3.538-2.168-5.736-2.168c-0.706,0-1.391,0.087-2.047,0.245c0.131,0.173,1.762,2.34,3.247,5.068
	C24.476,15.396,25.713,13.513,25.734,13.479z M23.16,20.998c1.14,3.131,1.603,5.681,1.691,6.205c1.95-1.316,3.335-3.404,3.723-5.824
	C28.394,21.319,25.965,20.55,23.16,20.998z M21.476,21.421c-5.131,1.787-6.801,5.395-6.814,5.423
	c1.473,1.15,3.322,1.843,5.337,1.843c1.203,0,2.349-0.245,3.391-0.689c-0.128-0.759-0.633-3.42-1.855-6.595
	C21.514,21.408,21.495,21.414,21.476,21.421z"/>
</svg>
